^C:\USERS\RCHENG\DROPBOX\JHU2013FALL\COMPUTERGRAPHICS\ASSIGNMENT 1\JPEG\JUTILS.CPP
C:\USERS\RCHENG\DROPBOX\JHU2013FALL\COMPUTERGRAPHICS\ASSIGNMENT 1\JPEG\JINCLUDE.H
C:\USERS\RCHENG\DROPBOX\JHU2013FALL\COMPUTERGRAPHICS\ASSIGNMENT 1\JPEG\JCONFIG.H
C:\PROGRAM FILES (X86)\MICROSOFT VISUAL STUDIO 10.0\VC\INCLUDE\STDDEF.H
C:\PROGRAM FILES (X86)\MICROSOFT VISUAL STUDIO 10.0\VC\INCLUDE\CRTDEFS.H
C:\PROGRAM FILES (X86)\MICROSOFT VISUAL STUDIO 10.0\VC\INCLUDE\SAL.H
C:\PROGRAM FILES (X86)\MICROSOFT VISUAL STUDIO 10.0\VC\INCLUDE\CODEANALYSIS\SOURCEANNOTATIONS.H
C:\PROGRAM FILES (X86)\MICROSOFT VISUAL STUDIO 10.0\VC\INCLUDE\VADEFS.H
C:\PROGRAM FILES (X86)\MICROSOFT VISUAL STUDIO 10.0\VC\INCLUDE\STDLIB.H
C:\PROGRAM FILES (X86)\MICROSOFT VISUAL STUDIO 10.0\VC\INCLUDE\LIMITS.H
C:\PROGRAM FILES (X86)\MICROSOFT VISUAL STUDIO 10.0\VC\INCLUDE\STDIO.H
C:\PROGRAM FILES (X86)\MICROSOFT VISUAL STUDIO 10.0\VC\INCLUDE\SWPRINTF.INL
C:\PROGRAM FILES (X86)\MICROSOFT VISUAL STUDIO 10.0\VC\INCLUDE\STRING.H
C:\USERS\RCHENG\DROPBOX\JHU2013FALL\COMPUTERGRAPHICS\ASSIGNMENT 1\JPEG\JPEGLIB.H
C:\USERS\RCHENG\DROPBOX\JHU2013FALL\COMPUTERGRAPHICS\ASSIGNMENT 1\JPEG\JMORECFG.H
C:\USERS\RCHENG\DROPBOX\JHU2013FALL\COMPUTERGRAPHICS\ASSIGNMENT 1\JPEG\JPEGINT.H
C:\USERS\RCHENG\DROPBOX\JHU2013FALL\COMPUTERGRAPHICS\ASSIGNMENT 1\JPEG\JERROR.H
^C:\USERS\RCHENG\DROPBOX\JHU2013FALL\COMPUTERGRAPHICS\ASSIGNMENT 1\JPEG\JQUANT2.CPP
C:\USERS\RCHENG\DROPBOX\JHU2013FALL\COMPUTERGRAPHICS\ASSIGNMENT 1\JPEG\JINCLUDE.H
C:\USERS\RCHENG\DROPBOX\JHU2013FALL\COMPUTERGRAPHICS\ASSIGNMENT 1\JPEG\JCONFIG.H
C:\PROGRAM FILES (X86)\MICROSOFT VISUAL STUDIO 10.0\VC\INCLUDE\STDDEF.H
C:\PROGRAM FILES (X86)\MICROSOFT VISUAL STUDIO 10.0\VC\INCLUDE\CRTDEFS.H
C:\PROGRAM FILES (X86)\MICROSOFT VISUAL STUDIO 10.0\VC\INCLUDE\SAL.H
C:\PROGRAM FILES (X86)\MICROSOFT VISUAL STUDIO 10.0\VC\INCLUDE\CODEANALYSIS\SOURCEANNOTATIONS.H
C:\PROGRAM FILES (X86)\MICROSOFT VISUAL STUDIO 10.0\VC\INCLUDE\VADEFS.H
C:\PROGRAM FILES (X86)\MICROSOFT VISUAL STUDIO 10.0\VC\INCLUDE\STDLIB.H
C:\PROGRAM FILES (X86)\MICROSOFT VISUAL STUDIO 10.0\VC\INCLUDE\LIMITS.H
C:\PROGRAM FILES (X86)\MICROSOFT VISUAL STUDIO 10.0\VC\INCLUDE\STDIO.H
C:\PROGRAM FILES (X86)\MICROSOFT VISUAL STUDIO 10.0\VC\INCLUDE\SWPRINTF.INL
C:\PROGRAM FILES (X86)\MICROSOFT VISUAL STUDIO 10.0\VC\INCLUDE\STRING.H
C:\USERS\RCHENG\DROPBOX\JHU2013FALL\COMPUTERGRAPHICS\ASSIGNMENT 1\JPEG\JPEGLIB.H
C:\USERS\RCHENG\DROPBOX\JHU2013FALL\COMPUTERGRAPHICS\ASSIGNMENT 1\JPEG\JMORECFG.H
C:\USERS\RCHENG\DROPBOX\JHU2013FALL\COMPUTERGRAPHICS\ASSIGNMENT 1\JPEG\JPEGINT.H
C:\USERS\RCHENG\DROPBOX\JHU2013FALL\COMPUTERGRAPHICS\ASSIGNMENT 1\JPEG\JERROR.H
^C:\USERS\RCHENG\DROPBOX\JHU2013FALL\COMPUTERGRAPHICS\ASSIGNMENT 1\JPEG\JQUANT1.CPP
C:\USERS\RCHENG\DROPBOX\JHU2013FALL\COMPUTERGRAPHICS\ASSIGNMENT 1\JPEG\JINCLUDE.H
C:\USERS\RCHENG\DROPBOX\JHU2013FALL\COMPUTERGRAPHICS\ASSIGNMENT 1\JPEG\JCONFIG.H
C:\PROGRAM FILES (X86)\MICROSOFT VISUAL STUDIO 10.0\VC\INCLUDE\STDDEF.H
C:\PROGRAM FILES (X86)\MICROSOFT VISUAL STUDIO 10.0\VC\INCLUDE\CRTDEFS.H
C:\PROGRAM FILES (X86)\MICROSOFT VISUAL STUDIO 10.0\VC\INCLUDE\SAL.H
C:\PROGRAM FILES (X86)\MICROSOFT VISUAL STUDIO 10.0\VC\INCLUDE\CODEANALYSIS\SOURCEANNOTATIONS.H
C:\PROGRAM FILES (X86)\MICROSOFT VISUAL STUDIO 10.0\VC\INCLUDE\VADEFS.H
C:\PROGRAM FILES (X86)\MICROSOFT VISUAL STUDIO 10.0\VC\INCLUDE\STDLIB.H
C:\PROGRAM FILES (X86)\MICROSOFT VISUAL STUDIO 10.0\VC\INCLUDE\LIMITS.H
C:\PROGRAM FILES (X86)\MICROSOFT VISUAL STUDIO 10.0\VC\INCLUDE\STDIO.H
C:\PROGRAM FILES (X86)\MICROSOFT VISUAL STUDIO 10.0\VC\INCLUDE\SWPRINTF.INL
C:\PROGRAM FILES (X86)\MICROSOFT VISUAL STUDIO 10.0\VC\INCLUDE\STRING.H
C:\USERS\RCHENG\DROPBOX\JHU2013FALL\COMPUTERGRAPHICS\ASSIGNMENT 1\JPEG\JPEGLIB.H
C:\USERS\RCHENG\DROPBOX\JHU2013FALL\COMPUTERGRAPHICS\ASSIGNMENT 1\JPEG\JMORECFG.H
C:\USERS\RCHENG\DROPBOX\JHU2013FALL\COMPUTERGRAPHICS\ASSIGNMENT 1\JPEG\JPEGINT.H
C:\USERS\RCHENG\DROPBOX\JHU2013FALL\COMPUTERGRAPHICS\ASSIGNMENT 1\JPEG\JERROR.H
^C:\USERS\RCHENG\DROPBOX\JHU2013FALL\COMPUTERGRAPHICS\ASSIGNMENT 1\JPEG\JMEMNOBS.CPP
C:\USERS\RCHENG\DROPBOX\JHU2013FALL\COMPUTERGRAPHICS\ASSIGNMENT 1\JPEG\JINCLUDE.H
C:\USERS\RCHENG\DROPBOX\JHU2013FALL\COMPUTERGRAPHICS\ASSIGNMENT 1\JPEG\JCONFIG.H
C:\PROGRAM FILES (X86)\MICROSOFT VISUAL STUDIO 10.0\VC\INCLUDE\STDDEF.H
C:\PROGRAM FILES (X86)\MICROSOFT VISUAL STUDIO 10.0\VC\INCLUDE\CRTDEFS.H
C:\PROGRAM FILES (X86)\MICROSOFT VISUAL STUDIO 10.0\VC\INCLUDE\SAL.H
C:\PROGRAM FILES (X86)\MICROSOFT VISUAL STUDIO 10.0\VC\INCLUDE\CODEANALYSIS\SOURCEANNOTATIONS.H
C:\PROGRAM FILES (X86)\MICROSOFT VISUAL STUDIO 10.0\VC\INCLUDE\VADEFS.H
C:\PROGRAM FILES (X86)\MICROSOFT VISUAL STUDIO 10.0\VC\INCLUDE\STDLIB.H
C:\PROGRAM FILES (X86)\MICROSOFT VISUAL STUDIO 10.0\VC\INCLUDE\LIMITS.H
C:\PROGRAM FILES (X86)\MICROSOFT VISUAL STUDIO 10.0\VC\INCLUDE\STDIO.H
C:\PROGRAM FILES (X86)\MICROSOFT VISUAL STUDIO 10.0\VC\INCLUDE\SWPRINTF.INL
C:\PROGRAM FILES (X86)\MICROSOFT VISUAL STUDIO 10.0\VC\INCLUDE\STRING.H
C:\USERS\RCHENG\DROPBOX\JHU2013FALL\COMPUTERGRAPHICS\ASSIGNMENT 1\JPEG\JPEGLIB.H
C:\USERS\RCHENG\DROPBOX\JHU2013FALL\COMPUTERGRAPHICS\ASSIGNMENT 1\JPEG\JMORECFG.H
C:\USERS\RCHENG\DROPBOX\JHU2013FALL\COMPUTERGRAPHICS\ASSIGNMENT 1\JPEG\JPEGINT.H
C:\USERS\RCHENG\DROPBOX\JHU2013FALL\COMPUTERGRAPHICS\ASSIGNMENT 1\JPEG\JERROR.H
C:\USERS\RCHENG\DROPBOX\JHU2013FALL\COMPUTERGRAPHICS\ASSIGNMENT 1\JPEG\JMEMSYS.H
^C:\USERS\RCHENG\DROPBOX\JHU2013FALL\COMPUTERGRAPHICS\ASSIGNMENT 1\JPEG\JMEMMGR.CPP
C:\USERS\RCHENG\DROPBOX\JHU2013FALL\COMPUTERGRAPHICS\ASSIGNMENT 1\JPEG\JINCLUDE.H
C:\USERS\RCHENG\DROPBOX\JHU2013FALL\COMPUTERGRAPHICS\ASSIGNMENT 1\JPEG\JCONFIG.H
C:\PROGRAM FILES (X86)\MICROSOFT VISUAL STUDIO 10.0\VC\INCLUDE\STDDEF.H
C:\PROGRAM FILES (X86)\MICROSOFT VISUAL STUDIO 10.0\VC\INCLUDE\CRTDEFS.H
C:\PROGRAM FILES (X86)\MICROSOFT VISUAL STUDIO 10.0\VC\INCLUDE\SAL.H
C:\PROGRAM FILES (X86)\MICROSOFT VISUAL STUDIO 10.0\VC\INCLUDE\CODEANALYSIS\SOURCEANNOTATIONS.H
C:\PROGRAM FILES (X86)\MICROSOFT VISUAL STUDIO 10.0\VC\INCLUDE\VADEFS.H
C:\PROGRAM FILES (X86)\MICROSOFT VISUAL STUDIO 10.0\VC\INCLUDE\STDLIB.H
C:\PROGRAM FILES (X86)\MICROSOFT VISUAL STUDIO 10.0\VC\INCLUDE\LIMITS.H
C:\PROGRAM FILES (X86)\MICROSOFT VISUAL STUDIO 10.0\VC\INCLUDE\STDIO.H
C:\PROGRAM FILES (X86)\MICROSOFT VISUAL STUDIO 10.0\VC\INCLUDE\SWPRINTF.INL
C:\PROGRAM FILES (X86)\MICROSOFT VISUAL STUDIO 10.0\VC\INCLUDE\STRING.H
C:\USERS\RCHENG\DROPBOX\JHU2013FALL\COMPUTERGRAPHICS\ASSIGNMENT 1\JPEG\JPEGLIB.H
C:\USERS\RCHENG\DROPBOX\JHU2013FALL\COMPUTERGRAPHICS\ASSIGNMENT 1\JPEG\JMORECFG.H
C:\USERS\RCHENG\DROPBOX\JHU2013FALL\COMPUTERGRAPHICS\ASSIGNMENT 1\JPEG\JPEGINT.H
C:\USERS\RCHENG\DROPBOX\JHU2013FALL\COMPUTERGRAPHICS\ASSIGNMENT 1\JPEG\JERROR.H
C:\USERS\RCHENG\DROPBOX\JHU2013FALL\COMPUTERGRAPHICS\ASSIGNMENT 1\JPEG\JMEMSYS.H
^C:\USERS\RCHENG\DROPBOX\JHU2013FALL\COMPUTERGRAPHICS\ASSIGNMENT 1\JPEG\JIDCTRED.CPP
C:\USERS\RCHENG\DROPBOX\JHU2013FALL\COMPUTERGRAPHICS\ASSIGNMENT 1\JPEG\JINCLUDE.H
C:\USERS\RCHENG\DROPBOX\JHU2013FALL\COMPUTERGRAPHICS\ASSIGNMENT 1\JPEG\JCONFIG.H
C:\PROGRAM FILES (X86)\MICROSOFT VISUAL STUDIO 10.0\VC\INCLUDE\STDDEF.H
C:\PROGRAM FILES (X86)\MICROSOFT VISUAL STUDIO 10.0\VC\INCLUDE\CRTDEFS.H
C:\PROGRAM FILES (X86)\MICROSOFT VISUAL STUDIO 10.0\VC\INCLUDE\SAL.H
C:\PROGRAM FILES (X86)\MICROSOFT VISUAL STUDIO 10.0\VC\INCLUDE\CODEANALYSIS\SOURCEANNOTATIONS.H
C:\PROGRAM FILES (X86)\MICROSOFT VISUAL STUDIO 10.0\VC\INCLUDE\VADEFS.H
C:\PROGRAM FILES (X86)\MICROSOFT VISUAL STUDIO 10.0\VC\INCLUDE\STDLIB.H
C:\PROGRAM FILES (X86)\MICROSOFT VISUAL STUDIO 10.0\VC\INCLUDE\LIMITS.H
C:\PROGRAM FILES (X86)\MICROSOFT VISUAL STUDIO 10.0\VC\INCLUDE\STDIO.H
C:\PROGRAM FILES (X86)\MICROSOFT VISUAL STUDIO 10.0\VC\INCLUDE\SWPRINTF.INL
C:\PROGRAM FILES (X86)\MICROSOFT VISUAL STUDIO 10.0\VC\INCLUDE\STRING.H
C:\USERS\RCHENG\DROPBOX\JHU2013FALL\COMPUTERGRAPHICS\ASSIGNMENT 1\JPEG\JPEGLIB.H
C:\USERS\RCHENG\DROPBOX\JHU2013FALL\COMPUTERGRAPHICS\ASSIGNMENT 1\JPEG\JMORECFG.H
C:\USERS\RCHENG\DROPBOX\JHU2013FALL\COMPUTERGRAPHICS\ASSIGNMENT 1\JPEG\JPEGINT.H
C:\USERS\RCHENG\DROPBOX\JHU2013FALL\COMPUTERGRAPHICS\ASSIGNMENT 1\JPEG\JERROR.H
C:\USERS\RCHENG\DROPBOX\JHU2013FALL\COMPUTERGRAPHICS\ASSIGNMENT 1\JPEG\JDCT.H
^C:\USERS\RCHENG\DROPBOX\JHU2013FALL\COMPUTERGRAPHICS\ASSIGNMENT 1\JPEG\JIDCTINT.CPP
C:\USERS\RCHENG\DROPBOX\JHU2013FALL\COMPUTERGRAPHICS\ASSIGNMENT 1\JPEG\JINCLUDE.H
C:\USERS\RCHENG\DROPBOX\JHU2013FALL\COMPUTERGRAPHICS\ASSIGNMENT 1\JPEG\JCONFIG.H
C:\PROGRAM FILES (X86)\MICROSOFT VISUAL STUDIO 10.0\VC\INCLUDE\STDDEF.H
C:\PROGRAM FILES (X86)\MICROSOFT VISUAL STUDIO 10.0\VC\INCLUDE\CRTDEFS.H
C:\PROGRAM FILES (X86)\MICROSOFT VISUAL STUDIO 10.0\VC\INCLUDE\SAL.H
C:\PROGRAM FILES (X86)\MICROSOFT VISUAL STUDIO 10.0\VC\INCLUDE\CODEANALYSIS\SOURCEANNOTATIONS.H
C:\PROGRAM FILES (X86)\MICROSOFT VISUAL STUDIO 10.0\VC\INCLUDE\VADEFS.H
C:\PROGRAM FILES (X86)\MICROSOFT VISUAL STUDIO 10.0\VC\INCLUDE\STDLIB.H
C:\PROGRAM FILES (X86)\MICROSOFT VISUAL STUDIO 10.0\VC\INCLUDE\LIMITS.H
C:\PROGRAM FILES (X86)\MICROSOFT VISUAL STUDIO 10.0\VC\INCLUDE\STDIO.H
C:\PROGRAM FILES (X86)\MICROSOFT VISUAL STUDIO 10.0\VC\INCLUDE\SWPRINTF.INL
C:\PROGRAM FILES (X86)\MICROSOFT VISUAL STUDIO 10.0\VC\INCLUDE\STRING.H
C:\USERS\RCHENG\DROPBOX\JHU2013FALL\COMPUTERGRAPHICS\ASSIGNMENT 1\JPEG\JPEGLIB.H
C:\USERS\RCHENG\DROPBOX\JHU2013FALL\COMPUTERGRAPHICS\ASSIGNMENT 1\JPEG\JMORECFG.H
C:\USERS\RCHENG\DROPBOX\JHU2013FALL\COMPUTERGRAPHICS\ASSIGNMENT 1\JPEG\JPEGINT.H
C:\USERS\RCHENG\DROPBOX\JHU2013FALL\COMPUTERGRAPHICS\ASSIGNMENT 1\JPEG\JERROR.H
C:\USERS\RCHENG\DROPBOX\JHU2013FALL\COMPUTERGRAPHICS\ASSIGNMENT 1\JPEG\JDCT.H
^C:\USERS\RCHENG\DROPBOX\JHU2013FALL\COMPUTERGRAPHICS\ASSIGNMENT 1\JPEG\JIDCTFST.CPP
C:\USERS\RCHENG\DROPBOX\JHU2013FALL\COMPUTERGRAPHICS\ASSIGNMENT 1\JPEG\JINCLUDE.H
C:\USERS\RCHENG\DROPBOX\JHU2013FALL\COMPUTERGRAPHICS\ASSIGNMENT 1\JPEG\JCONFIG.H
C:\PROGRAM FILES (X86)\MICROSOFT VISUAL STUDIO 10.0\VC\INCLUDE\STDDEF.H
C:\PROGRAM FILES (X86)\MICROSOFT VISUAL STUDIO 10.0\VC\INCLUDE\CRTDEFS.H
C:\PROGRAM FILES (X86)\MICROSOFT VISUAL STUDIO 10.0\VC\INCLUDE\SAL.H
C:\PROGRAM FILES (X86)\MICROSOFT VISUAL STUDIO 10.0\VC\INCLUDE\CODEANALYSIS\SOURCEANNOTATIONS.H
C:\PROGRAM FILES (X86)\MICROSOFT VISUAL STUDIO 10.0\VC\INCLUDE\VADEFS.H
C:\PROGRAM FILES (X86)\MICROSOFT VISUAL STUDIO 10.0\VC\INCLUDE\STDLIB.H
C:\PROGRAM FILES (X86)\MICROSOFT VISUAL STUDIO 10.0\VC\INCLUDE\LIMITS.H
C:\PROGRAM FILES (X86)\MICROSOFT VISUAL STUDIO 10.0\VC\INCLUDE\STDIO.H
C:\PROGRAM FILES (X86)\MICROSOFT VISUAL STUDIO 10.0\VC\INCLUDE\SWPRINTF.INL
C:\PROGRAM FILES (X86)\MICROSOFT VISUAL STUDIO 10.0\VC\INCLUDE\STRING.H
C:\USERS\RCHENG\DROPBOX\JHU2013FALL\COMPUTERGRAPHICS\ASSIGNMENT 1\JPEG\JPEGLIB.H
C:\USERS\RCHENG\DROPBOX\JHU2013FALL\COMPUTERGRAPHICS\ASSIGNMENT 1\JPEG\JMORECFG.H
C:\USERS\RCHENG\DROPBOX\JHU2013FALL\COMPUTERGRAPHICS\ASSIGNMENT 1\JPEG\JPEGINT.H
C:\USERS\RCHENG\DROPBOX\JHU2013FALL\COMPUTERGRAPHICS\ASSIGNMENT 1\JPEG\JERROR.H
C:\USERS\RCHENG\DROPBOX\JHU2013FALL\COMPUTERGRAPHICS\ASSIGNMENT 1\JPEG\JDCT.H
^C:\USERS\RCHENG\DROPBOX\JHU2013FALL\COMPUTERGRAPHICS\ASSIGNMENT 1\JPEG\JIDCTFLT.CPP
C:\USERS\RCHENG\DROPBOX\JHU2013FALL\COMPUTERGRAPHICS\ASSIGNMENT 1\JPEG\JINCLUDE.H
C:\USERS\RCHENG\DROPBOX\JHU2013FALL\COMPUTERGRAPHICS\ASSIGNMENT 1\JPEG\JCONFIG.H
C:\PROGRAM FILES (X86)\MICROSOFT VISUAL STUDIO 10.0\VC\INCLUDE\STDDEF.H
C:\PROGRAM FILES (X86)\MICROSOFT VISUAL STUDIO 10.0\VC\INCLUDE\CRTDEFS.H
C:\PROGRAM FILES (X86)\MICROSOFT VISUAL STUDIO 10.0\VC\INCLUDE\SAL.H
C:\PROGRAM FILES (X86)\MICROSOFT VISUAL STUDIO 10.0\VC\INCLUDE\CODEANALYSIS\SOURCEANNOTATIONS.H
C:\PROGRAM FILES (X86)\MICROSOFT VISUAL STUDIO 10.0\VC\INCLUDE\VADEFS.H
C:\PROGRAM FILES (X86)\MICROSOFT VISUAL STUDIO 10.0\VC\INCLUDE\STDLIB.H
C:\PROGRAM FILES (X86)\MICROSOFT VISUAL STUDIO 10.0\VC\INCLUDE\LIMITS.H
C:\PROGRAM FILES (X86)\MICROSOFT VISUAL STUDIO 10.0\VC\INCLUDE\STDIO.H
C:\PROGRAM FILES (X86)\MICROSOFT VISUAL STUDIO 10.0\VC\INCLUDE\SWPRINTF.INL
C:\PROGRAM FILES (X86)\MICROSOFT VISUAL STUDIO 10.0\VC\INCLUDE\STRING.H
C:\USERS\RCHENG\DROPBOX\JHU2013FALL\COMPUTERGRAPHICS\ASSIGNMENT 1\JPEG\JPEGLIB.H
C:\USERS\RCHENG\DROPBOX\JHU2013FALL\COMPUTERGRAPHICS\ASSIGNMENT 1\JPEG\JMORECFG.H
C:\USERS\RCHENG\DROPBOX\JHU2013FALL\COMPUTERGRAPHICS\ASSIGNMENT 1\JPEG\JPEGINT.H
C:\USERS\RCHENG\DROPBOX\JHU2013FALL\COMPUTERGRAPHICS\ASSIGNMENT 1\JPEG\JERROR.H
C:\USERS\RCHENG\DROPBOX\JHU2013FALL\COMPUTERGRAPHICS\ASSIGNMENT 1\JPEG\JDCT.H
^C:\USERS\RCHENG\DROPBOX\JHU2013FALL\COMPUTERGRAPHICS\ASSIGNMENT 1\JPEG\JFDCTINT.CPP
C:\USERS\RCHENG\DROPBOX\JHU2013FALL\COMPUTERGRAPHICS\ASSIGNMENT 1\JPEG\JINCLUDE.H
C:\USERS\RCHENG\DROPBOX\JHU2013FALL\COMPUTERGRAPHICS\ASSIGNMENT 1\JPEG\JCONFIG.H
C:\PROGRAM FILES (X86)\MICROSOFT VISUAL STUDIO 10.0\VC\INCLUDE\STDDEF.H
C:\PROGRAM FILES (X86)\MICROSOFT VISUAL STUDIO 10.0\VC\INCLUDE\CRTDEFS.H
C:\PROGRAM FILES (X86)\MICROSOFT VISUAL STUDIO 10.0\VC\INCLUDE\SAL.H
C:\PROGRAM FILES (X86)\MICROSOFT VISUAL STUDIO 10.0\VC\INCLUDE\CODEANALYSIS\SOURCEANNOTATIONS.H
C:\PROGRAM FILES (X86)\MICROSOFT VISUAL STUDIO 10.0\VC\INCLUDE\VADEFS.H
C:\PROGRAM FILES (X86)\MICROSOFT VISUAL STUDIO 10.0\VC\INCLUDE\STDLIB.H
C:\PROGRAM FILES (X86)\MICROSOFT VISUAL STUDIO 10.0\VC\INCLUDE\LIMITS.H
C:\PROGRAM FILES (X86)\MICROSOFT VISUAL STUDIO 10.0\VC\INCLUDE\STDIO.H
C:\PROGRAM FILES (X86)\MICROSOFT VISUAL STUDIO 10.0\VC\INCLUDE\SWPRINTF.INL
C:\PROGRAM FILES (X86)\MICROSOFT VISUAL STUDIO 10.0\VC\INCLUDE\STRING.H
C:\USERS\RCHENG\DROPBOX\JHU2013FALL\COMPUTERGRAPHICS\ASSIGNMENT 1\JPEG\JPEGLIB.H
C:\USERS\RCHENG\DROPBOX\JHU2013FALL\COMPUTERGRAPHICS\ASSIGNMENT 1\JPEG\JMORECFG.H
C:\USERS\RCHENG\DROPBOX\JHU2013FALL\COMPUTERGRAPHICS\ASSIGNMENT 1\JPEG\JPEGINT.H
C:\USERS\RCHENG\DROPBOX\JHU2013FALL\COMPUTERGRAPHICS\ASSIGNMENT 1\JPEG\JERROR.H
C:\USERS\RCHENG\DROPBOX\JHU2013FALL\COMPUTERGRAPHICS\ASSIGNMENT 1\JPEG\JDCT.H
^C:\USERS\RCHENG\DROPBOX\JHU2013FALL\COMPUTERGRAPHICS\ASSIGNMENT 1\JPEG\JFDCTFST.CPP
C:\USERS\RCHENG\DROPBOX\JHU2013FALL\COMPUTERGRAPHICS\ASSIGNMENT 1\JPEG\JINCLUDE.H
C:\USERS\RCHENG\DROPBOX\JHU2013FALL\COMPUTERGRAPHICS\ASSIGNMENT 1\JPEG\JCONFIG.H
C:\PROGRAM FILES (X86)\MICROSOFT VISUAL STUDIO 10.0\VC\INCLUDE\STDDEF.H
C:\PROGRAM FILES (X86)\MICROSOFT VISUAL STUDIO 10.0\VC\INCLUDE\CRTDEFS.H
C:\PROGRAM FILES (X86)\MICROSOFT VISUAL STUDIO 10.0\VC\INCLUDE\SAL.H
C:\PROGRAM FILES (X86)\MICROSOFT VISUAL STUDIO 10.0\VC\INCLUDE\CODEANALYSIS\SOURCEANNOTATIONS.H
C:\PROGRAM FILES (X86)\MICROSOFT VISUAL STUDIO 10.0\VC\INCLUDE\VADEFS.H
C:\PROGRAM FILES (X86)\MICROSOFT VISUAL STUDIO 10.0\VC\INCLUDE\STDLIB.H
C:\PROGRAM FILES (X86)\MICROSOFT VISUAL STUDIO 10.0\VC\INCLUDE\LIMITS.H
C:\PROGRAM FILES (X86)\MICROSOFT VISUAL STUDIO 10.0\VC\INCLUDE\STDIO.H
C:\PROGRAM FILES (X86)\MICROSOFT VISUAL STUDIO 10.0\VC\INCLUDE\SWPRINTF.INL
C:\PROGRAM FILES (X86)\MICROSOFT VISUAL STUDIO 10.0\VC\INCLUDE\STRING.H
C:\USERS\RCHENG\DROPBOX\JHU2013FALL\COMPUTERGRAPHICS\ASSIGNMENT 1\JPEG\JPEGLIB.H
C:\USERS\RCHENG\DROPBOX\JHU2013FALL\COMPUTERGRAPHICS\ASSIGNMENT 1\JPEG\JMORECFG.H
C:\USERS\RCHENG\DROPBOX\JHU2013FALL\COMPUTERGRAPHICS\ASSIGNMENT 1\JPEG\JPEGINT.H
C:\USERS\RCHENG\DROPBOX\JHU2013FALL\COMPUTERGRAPHICS\ASSIGNMENT 1\JPEG\JERROR.H
C:\USERS\RCHENG\DROPBOX\JHU2013FALL\COMPUTERGRAPHICS\ASSIGNMENT 1\JPEG\JDCT.H
^C:\USERS\RCHENG\DROPBOX\JHU2013FALL\COMPUTERGRAPHICS\ASSIGNMENT 1\JPEG\JFDCTFLT.CPP
C:\USERS\RCHENG\DROPBOX\JHU2013FALL\COMPUTERGRAPHICS\ASSIGNMENT 1\JPEG\JINCLUDE.H
C:\USERS\RCHENG\DROPBOX\JHU2013FALL\COMPUTERGRAPHICS\ASSIGNMENT 1\JPEG\JCONFIG.H
C:\PROGRAM FILES (X86)\MICROSOFT VISUAL STUDIO 10.0\VC\INCLUDE\STDDEF.H
C:\PROGRAM FILES (X86)\MICROSOFT VISUAL STUDIO 10.0\VC\INCLUDE\CRTDEFS.H
C:\PROGRAM FILES (X86)\MICROSOFT VISUAL STUDIO 10.0\VC\INCLUDE\SAL.H
C:\PROGRAM FILES (X86)\MICROSOFT VISUAL STUDIO 10.0\VC\INCLUDE\CODEANALYSIS\SOURCEANNOTATIONS.H
C:\PROGRAM FILES (X86)\MICROSOFT VISUAL STUDIO 10.0\VC\INCLUDE\VADEFS.H
C:\PROGRAM FILES (X86)\MICROSOFT VISUAL STUDIO 10.0\VC\INCLUDE\STDLIB.H
C:\PROGRAM FILES (X86)\MICROSOFT VISUAL STUDIO 10.0\VC\INCLUDE\LIMITS.H
C:\PROGRAM FILES (X86)\MICROSOFT VISUAL STUDIO 10.0\VC\INCLUDE\STDIO.H
C:\PROGRAM FILES (X86)\MICROSOFT VISUAL STUDIO 10.0\VC\INCLUDE\SWPRINTF.INL
C:\PROGRAM FILES (X86)\MICROSOFT VISUAL STUDIO 10.0\VC\INCLUDE\STRING.H
C:\USERS\RCHENG\DROPBOX\JHU2013FALL\COMPUTERGRAPHICS\ASSIGNMENT 1\JPEG\JPEGLIB.H
C:\USERS\RCHENG\DROPBOX\JHU2013FALL\COMPUTERGRAPHICS\ASSIGNMENT 1\JPEG\JMORECFG.H
C:\USERS\RCHENG\DROPBOX\JHU2013FALL\COMPUTERGRAPHICS\ASSIGNMENT 1\JPEG\JPEGINT.H
C:\USERS\RCHENG\DROPBOX\JHU2013FALL\COMPUTERGRAPHICS\ASSIGNMENT 1\JPEG\JERROR.H
C:\USERS\RCHENG\DROPBOX\JHU2013FALL\COMPUTERGRAPHICS\ASSIGNMENT 1\JPEG\JDCT.H
^C:\USERS\RCHENG\DROPBOX\JHU2013FALL\COMPUTERGRAPHICS\ASSIGNMENT 1\JPEG\JERROR.CPP
C:\USERS\RCHENG\DROPBOX\JHU2013FALL\COMPUTERGRAPHICS\ASSIGNMENT 1\JPEG\JINCLUDE.H
C:\USERS\RCHENG\DROPBOX\JHU2013FALL\COMPUTERGRAPHICS\ASSIGNMENT 1\JPEG\JCONFIG.H
C:\PROGRAM FILES (X86)\MICROSOFT VISUAL STUDIO 10.0\VC\INCLUDE\STDDEF.H
C:\PROGRAM FILES (X86)\MICROSOFT VISUAL STUDIO 10.0\VC\INCLUDE\CRTDEFS.H
C:\PROGRAM FILES (X86)\MICROSOFT VISUAL STUDIO 10.0\VC\INCLUDE\SAL.H
C:\PROGRAM FILES (X86)\MICROSOFT VISUAL STUDIO 10.0\VC\INCLUDE\CODEANALYSIS\SOURCEANNOTATIONS.H
C:\PROGRAM FILES (X86)\MICROSOFT VISUAL STUDIO 10.0\VC\INCLUDE\VADEFS.H
C:\PROGRAM FILES (X86)\MICROSOFT VISUAL STUDIO 10.0\VC\INCLUDE\STDLIB.H
C:\PROGRAM FILES (X86)\MICROSOFT VISUAL STUDIO 10.0\VC\INCLUDE\LIMITS.H
C:\PROGRAM FILES (X86)\MICROSOFT VISUAL STUDIO 10.0\VC\INCLUDE\STDIO.H
C:\PROGRAM FILES (X86)\MICROSOFT VISUAL STUDIO 10.0\VC\INCLUDE\SWPRINTF.INL
C:\PROGRAM FILES (X86)\MICROSOFT VISUAL STUDIO 10.0\VC\INCLUDE\STRING.H
C:\USERS\RCHENG\DROPBOX\JHU2013FALL\COMPUTERGRAPHICS\ASSIGNMENT 1\JPEG\JPEGLIB.H
C:\USERS\RCHENG\DROPBOX\JHU2013FALL\COMPUTERGRAPHICS\ASSIGNMENT 1\JPEG\JMORECFG.H
C:\USERS\RCHENG\DROPBOX\JHU2013FALL\COMPUTERGRAPHICS\ASSIGNMENT 1\JPEG\JVERSION.H
C:\USERS\RCHENG\DROPBOX\JHU2013FALL\COMPUTERGRAPHICS\ASSIGNMENT 1\JPEG\JERROR.H
^C:\USERS\RCHENG\DROPBOX\JHU2013FALL\COMPUTERGRAPHICS\ASSIGNMENT 1\JPEG\JDTRANS.CPP
C:\USERS\RCHENG\DROPBOX\JHU2013FALL\COMPUTERGRAPHICS\ASSIGNMENT 1\JPEG\JINCLUDE.H
C:\USERS\RCHENG\DROPBOX\JHU2013FALL\COMPUTERGRAPHICS\ASSIGNMENT 1\JPEG\JCONFIG.H
C:\PROGRAM FILES (X86)\MICROSOFT VISUAL STUDIO 10.0\VC\INCLUDE\STDDEF.H
C:\PROGRAM FILES (X86)\MICROSOFT VISUAL STUDIO 10.0\VC\INCLUDE\CRTDEFS.H
C:\PROGRAM FILES (X86)\MICROSOFT VISUAL STUDIO 10.0\VC\INCLUDE\SAL.H
C:\PROGRAM FILES (X86)\MICROSOFT VISUAL STUDIO 10.0\VC\INCLUDE\CODEANALYSIS\SOURCEANNOTATIONS.H
C:\PROGRAM FILES (X86)\MICROSOFT VISUAL STUDIO 10.0\VC\INCLUDE\VADEFS.H
C:\PROGRAM FILES (X86)\MICROSOFT VISUAL STUDIO 10.0\VC\INCLUDE\STDLIB.H
C:\PROGRAM FILES (X86)\MICROSOFT VISUAL STUDIO 10.0\VC\INCLUDE\LIMITS.H
C:\PROGRAM FILES (X86)\MICROSOFT VISUAL STUDIO 10.0\VC\INCLUDE\STDIO.H
C:\PROGRAM FILES (X86)\MICROSOFT VISUAL STUDIO 10.0\VC\INCLUDE\SWPRINTF.INL
C:\PROGRAM FILES (X86)\MICROSOFT VISUAL STUDIO 10.0\VC\INCLUDE\STRING.H
C:\USERS\RCHENG\DROPBOX\JHU2013FALL\COMPUTERGRAPHICS\ASSIGNMENT 1\JPEG\JPEGLIB.H
C:\USERS\RCHENG\DROPBOX\JHU2013FALL\COMPUTERGRAPHICS\ASSIGNMENT 1\JPEG\JMORECFG.H
C:\USERS\RCHENG\DROPBOX\JHU2013FALL\COMPUTERGRAPHICS\ASSIGNMENT 1\JPEG\JPEGINT.H
C:\USERS\RCHENG\DROPBOX\JHU2013FALL\COMPUTERGRAPHICS\ASSIGNMENT 1\JPEG\JERROR.H
^C:\USERS\RCHENG\DROPBOX\JHU2013FALL\COMPUTERGRAPHICS\ASSIGNMENT 1\JPEG\JDSAMPLE.CPP
C:\USERS\RCHENG\DROPBOX\JHU2013FALL\COMPUTERGRAPHICS\ASSIGNMENT 1\JPEG\JINCLUDE.H
C:\USERS\RCHENG\DROPBOX\JHU2013FALL\COMPUTERGRAPHICS\ASSIGNMENT 1\JPEG\JCONFIG.H
C:\PROGRAM FILES (X86)\MICROSOFT VISUAL STUDIO 10.0\VC\INCLUDE\STDDEF.H
C:\PROGRAM FILES (X86)\MICROSOFT VISUAL STUDIO 10.0\VC\INCLUDE\CRTDEFS.H
C:\PROGRAM FILES (X86)\MICROSOFT VISUAL STUDIO 10.0\VC\INCLUDE\SAL.H
C:\PROGRAM FILES (X86)\MICROSOFT VISUAL STUDIO 10.0\VC\INCLUDE\CODEANALYSIS\SOURCEANNOTATIONS.H
C:\PROGRAM FILES (X86)\MICROSOFT VISUAL STUDIO 10.0\VC\INCLUDE\VADEFS.H
C:\PROGRAM FILES (X86)\MICROSOFT VISUAL STUDIO 10.0\VC\INCLUDE\STDLIB.H
C:\PROGRAM FILES (X86)\MICROSOFT VISUAL STUDIO 10.0\VC\INCLUDE\LIMITS.H
C:\PROGRAM FILES (X86)\MICROSOFT VISUAL STUDIO 10.0\VC\INCLUDE\STDIO.H
C:\PROGRAM FILES (X86)\MICROSOFT VISUAL STUDIO 10.0\VC\INCLUDE\SWPRINTF.INL
C:\PROGRAM FILES (X86)\MICROSOFT VISUAL STUDIO 10.0\VC\INCLUDE\STRING.H
C:\USERS\RCHENG\DROPBOX\JHU2013FALL\COMPUTERGRAPHICS\ASSIGNMENT 1\JPEG\JPEGLIB.H
C:\USERS\RCHENG\DROPBOX\JHU2013FALL\COMPUTERGRAPHICS\ASSIGNMENT 1\JPEG\JMORECFG.H
C:\USERS\RCHENG\DROPBOX\JHU2013FALL\COMPUTERGRAPHICS\ASSIGNMENT 1\JPEG\JPEGINT.H
C:\USERS\RCHENG\DROPBOX\JHU2013FALL\COMPUTERGRAPHICS\ASSIGNMENT 1\JPEG\JERROR.H
^C:\USERS\RCHENG\DROPBOX\JHU2013FALL\COMPUTERGRAPHICS\ASSIGNMENT 1\JPEG\JDPOSTCT.CPP
C:\USERS\RCHENG\DROPBOX\JHU2013FALL\COMPUTERGRAPHICS\ASSIGNMENT 1\JPEG\JINCLUDE.H
C:\USERS\RCHENG\DROPBOX\JHU2013FALL\COMPUTERGRAPHICS\ASSIGNMENT 1\JPEG\JCONFIG.H
C:\PROGRAM FILES (X86)\MICROSOFT VISUAL STUDIO 10.0\VC\INCLUDE\STDDEF.H
C:\PROGRAM FILES (X86)\MICROSOFT VISUAL STUDIO 10.0\VC\INCLUDE\CRTDEFS.H
C:\PROGRAM FILES (X86)\MICROSOFT VISUAL STUDIO 10.0\VC\INCLUDE\SAL.H
C:\PROGRAM FILES (X86)\MICROSOFT VISUAL STUDIO 10.0\VC\INCLUDE\CODEANALYSIS\SOURCEANNOTATIONS.H
C:\PROGRAM FILES (X86)\MICROSOFT VISUAL STUDIO 10.0\VC\INCLUDE\VADEFS.H
C:\PROGRAM FILES (X86)\MICROSOFT VISUAL STUDIO 10.0\VC\INCLUDE\STDLIB.H
C:\PROGRAM FILES (X86)\MICROSOFT VISUAL STUDIO 10.0\VC\INCLUDE\LIMITS.H
C:\PROGRAM FILES (X86)\MICROSOFT VISUAL STUDIO 10.0\VC\INCLUDE\STDIO.H
C:\PROGRAM FILES (X86)\MICROSOFT VISUAL STUDIO 10.0\VC\INCLUDE\SWPRINTF.INL
C:\PROGRAM FILES (X86)\MICROSOFT VISUAL STUDIO 10.0\VC\INCLUDE\STRING.H
C:\USERS\RCHENG\DROPBOX\JHU2013FALL\COMPUTERGRAPHICS\ASSIGNMENT 1\JPEG\JPEGLIB.H
C:\USERS\RCHENG\DROPBOX\JHU2013FALL\COMPUTERGRAPHICS\ASSIGNMENT 1\JPEG\JMORECFG.H
C:\USERS\RCHENG\DROPBOX\JHU2013FALL\COMPUTERGRAPHICS\ASSIGNMENT 1\JPEG\JPEGINT.H
C:\USERS\RCHENG\DROPBOX\JHU2013FALL\COMPUTERGRAPHICS\ASSIGNMENT 1\JPEG\JERROR.H
^C:\USERS\RCHENG\DROPBOX\JHU2013FALL\COMPUTERGRAPHICS\ASSIGNMENT 1\JPEG\JDPHUFF.CPP
C:\USERS\RCHENG\DROPBOX\JHU2013FALL\COMPUTERGRAPHICS\ASSIGNMENT 1\JPEG\JINCLUDE.H
C:\USERS\RCHENG\DROPBOX\JHU2013FALL\COMPUTERGRAPHICS\ASSIGNMENT 1\JPEG\JCONFIG.H
C:\PROGRAM FILES (X86)\MICROSOFT VISUAL STUDIO 10.0\VC\INCLUDE\STDDEF.H
C:\PROGRAM FILES (X86)\MICROSOFT VISUAL STUDIO 10.0\VC\INCLUDE\CRTDEFS.H
C:\PROGRAM FILES (X86)\MICROSOFT VISUAL STUDIO 10.0\VC\INCLUDE\SAL.H
C:\PROGRAM FILES (X86)\MICROSOFT VISUAL STUDIO 10.0\VC\INCLUDE\CODEANALYSIS\SOURCEANNOTATIONS.H
C:\PROGRAM FILES (X86)\MICROSOFT VISUAL STUDIO 10.0\VC\INCLUDE\VADEFS.H
C:\PROGRAM FILES (X86)\MICROSOFT VISUAL STUDIO 10.0\VC\INCLUDE\STDLIB.H
C:\PROGRAM FILES (X86)\MICROSOFT VISUAL STUDIO 10.0\VC\INCLUDE\LIMITS.H
C:\PROGRAM FILES (X86)\MICROSOFT VISUAL STUDIO 10.0\VC\INCLUDE\STDIO.H
C:\PROGRAM FILES (X86)\MICROSOFT VISUAL STUDIO 10.0\VC\INCLUDE\SWPRINTF.INL
C:\PROGRAM FILES (X86)\MICROSOFT VISUAL STUDIO 10.0\VC\INCLUDE\STRING.H
C:\USERS\RCHENG\DROPBOX\JHU2013FALL\COMPUTERGRAPHICS\ASSIGNMENT 1\JPEG\JPEGLIB.H
C:\USERS\RCHENG\DROPBOX\JHU2013FALL\COMPUTERGRAPHICS\ASSIGNMENT 1\JPEG\JMORECFG.H
C:\USERS\RCHENG\DROPBOX\JHU2013FALL\COMPUTERGRAPHICS\ASSIGNMENT 1\JPEG\JPEGINT.H
C:\USERS\RCHENG\DROPBOX\JHU2013FALL\COMPUTERGRAPHICS\ASSIGNMENT 1\JPEG\JERROR.H
C:\USERS\RCHENG\DROPBOX\JHU2013FALL\COMPUTERGRAPHICS\ASSIGNMENT 1\JPEG\JDHUFF.H
^C:\USERS\RCHENG\DROPBOX\JHU2013FALL\COMPUTERGRAPHICS\ASSIGNMENT 1\JPEG\JDMERGE.CPP
C:\USERS\RCHENG\DROPBOX\JHU2013FALL\COMPUTERGRAPHICS\ASSIGNMENT 1\JPEG\JINCLUDE.H
C:\USERS\RCHENG\DROPBOX\JHU2013FALL\COMPUTERGRAPHICS\ASSIGNMENT 1\JPEG\JCONFIG.H
C:\PROGRAM FILES (X86)\MICROSOFT VISUAL STUDIO 10.0\VC\INCLUDE\STDDEF.H
C:\PROGRAM FILES (X86)\MICROSOFT VISUAL STUDIO 10.0\VC\INCLUDE\CRTDEFS.H
C:\PROGRAM FILES (X86)\MICROSOFT VISUAL STUDIO 10.0\VC\INCLUDE\SAL.H
C:\PROGRAM FILES (X86)\MICROSOFT VISUAL STUDIO 10.0\VC\INCLUDE\CODEANALYSIS\SOURCEANNOTATIONS.H
C:\PROGRAM FILES (X86)\MICROSOFT VISUAL STUDIO 10.0\VC\INCLUDE\VADEFS.H
C:\PROGRAM FILES (X86)\MICROSOFT VISUAL STUDIO 10.0\VC\INCLUDE\STDLIB.H
C:\PROGRAM FILES (X86)\MICROSOFT VISUAL STUDIO 10.0\VC\INCLUDE\LIMITS.H
C:\PROGRAM FILES (X86)\MICROSOFT VISUAL STUDIO 10.0\VC\INCLUDE\STDIO.H
C:\PROGRAM FILES (X86)\MICROSOFT VISUAL STUDIO 10.0\VC\INCLUDE\SWPRINTF.INL
C:\PROGRAM FILES (X86)\MICROSOFT VISUAL STUDIO 10.0\VC\INCLUDE\STRING.H
C:\USERS\RCHENG\DROPBOX\JHU2013FALL\COMPUTERGRAPHICS\ASSIGNMENT 1\JPEG\JPEGLIB.H
C:\USERS\RCHENG\DROPBOX\JHU2013FALL\COMPUTERGRAPHICS\ASSIGNMENT 1\JPEG\JMORECFG.H
C:\USERS\RCHENG\DROPBOX\JHU2013FALL\COMPUTERGRAPHICS\ASSIGNMENT 1\JPEG\JPEGINT.H
C:\USERS\RCHENG\DROPBOX\JHU2013FALL\COMPUTERGRAPHICS\ASSIGNMENT 1\JPEG\JERROR.H
^C:\USERS\RCHENG\DROPBOX\JHU2013FALL\COMPUTERGRAPHICS\ASSIGNMENT 1\JPEG\JDMASTER.CPP
C:\USERS\RCHENG\DROPBOX\JHU2013FALL\COMPUTERGRAPHICS\ASSIGNMENT 1\JPEG\JINCLUDE.H
C:\USERS\RCHENG\DROPBOX\JHU2013FALL\COMPUTERGRAPHICS\ASSIGNMENT 1\JPEG\JCONFIG.H
C:\PROGRAM FILES (X86)\MICROSOFT VISUAL STUDIO 10.0\VC\INCLUDE\STDDEF.H
C:\PROGRAM FILES (X86)\MICROSOFT VISUAL STUDIO 10.0\VC\INCLUDE\CRTDEFS.H
C:\PROGRAM FILES (X86)\MICROSOFT VISUAL STUDIO 10.0\VC\INCLUDE\SAL.H
C:\PROGRAM FILES (X86)\MICROSOFT VISUAL STUDIO 10.0\VC\INCLUDE\CODEANALYSIS\SOURCEANNOTATIONS.H
C:\PROGRAM FILES (X86)\MICROSOFT VISUAL STUDIO 10.0\VC\INCLUDE\VADEFS.H
C:\PROGRAM FILES (X86)\MICROSOFT VISUAL STUDIO 10.0\VC\INCLUDE\STDLIB.H
C:\PROGRAM FILES (X86)\MICROSOFT VISUAL STUDIO 10.0\VC\INCLUDE\LIMITS.H
C:\PROGRAM FILES (X86)\MICROSOFT VISUAL STUDIO 10.0\VC\INCLUDE\STDIO.H
C:\PROGRAM FILES (X86)\MICROSOFT VISUAL STUDIO 10.0\VC\INCLUDE\SWPRINTF.INL
C:\PROGRAM FILES (X86)\MICROSOFT VISUAL STUDIO 10.0\VC\INCLUDE\STRING.H
C:\USERS\RCHENG\DROPBOX\JHU2013FALL\COMPUTERGRAPHICS\ASSIGNMENT 1\JPEG\JPEGLIB.H
C:\USERS\RCHENG\DROPBOX\JHU2013FALL\COMPUTERGRAPHICS\ASSIGNMENT 1\JPEG\JMORECFG.H
C:\USERS\RCHENG\DROPBOX\JHU2013FALL\COMPUTERGRAPHICS\ASSIGNMENT 1\JPEG\JPEGINT.H
C:\USERS\RCHENG\DROPBOX\JHU2013FALL\COMPUTERGRAPHICS\ASSIGNMENT 1\JPEG\JERROR.H
^C:\USERS\RCHENG\DROPBOX\JHU2013FALL\COMPUTERGRAPHICS\ASSIGNMENT 1\JPEG\JDMARKER.CPP
C:\USERS\RCHENG\DROPBOX\JHU2013FALL\COMPUTERGRAPHICS\ASSIGNMENT 1\JPEG\JINCLUDE.H
C:\USERS\RCHENG\DROPBOX\JHU2013FALL\COMPUTERGRAPHICS\ASSIGNMENT 1\JPEG\JCONFIG.H
C:\PROGRAM FILES (X86)\MICROSOFT VISUAL STUDIO 10.0\VC\INCLUDE\STDDEF.H
C:\PROGRAM FILES (X86)\MICROSOFT VISUAL STUDIO 10.0\VC\INCLUDE\CRTDEFS.H
C:\PROGRAM FILES (X86)\MICROSOFT VISUAL STUDIO 10.0\VC\INCLUDE\SAL.H
C:\PROGRAM FILES (X86)\MICROSOFT VISUAL STUDIO 10.0\VC\INCLUDE\CODEANALYSIS\SOURCEANNOTATIONS.H
C:\PROGRAM FILES (X86)\MICROSOFT VISUAL STUDIO 10.0\VC\INCLUDE\VADEFS.H
C:\PROGRAM FILES (X86)\MICROSOFT VISUAL STUDIO 10.0\VC\INCLUDE\STDLIB.H
C:\PROGRAM FILES (X86)\MICROSOFT VISUAL STUDIO 10.0\VC\INCLUDE\LIMITS.H
C:\PROGRAM FILES (X86)\MICROSOFT VISUAL STUDIO 10.0\VC\INCLUDE\STDIO.H
C:\PROGRAM FILES (X86)\MICROSOFT VISUAL STUDIO 10.0\VC\INCLUDE\SWPRINTF.INL
C:\PROGRAM FILES (X86)\MICROSOFT VISUAL STUDIO 10.0\VC\INCLUDE\STRING.H
C:\USERS\RCHENG\DROPBOX\JHU2013FALL\COMPUTERGRAPHICS\ASSIGNMENT 1\JPEG\JPEGLIB.H
C:\USERS\RCHENG\DROPBOX\JHU2013FALL\COMPUTERGRAPHICS\ASSIGNMENT 1\JPEG\JMORECFG.H
C:\USERS\RCHENG\DROPBOX\JHU2013FALL\COMPUTERGRAPHICS\ASSIGNMENT 1\JPEG\JPEGINT.H
C:\USERS\RCHENG\DROPBOX\JHU2013FALL\COMPUTERGRAPHICS\ASSIGNMENT 1\JPEG\JERROR.H
^C:\USERS\RCHENG\DROPBOX\JHU2013FALL\COMPUTERGRAPHICS\ASSIGNMENT 1\JPEG\JDMAINCT.CPP
C:\USERS\RCHENG\DROPBOX\JHU2013FALL\COMPUTERGRAPHICS\ASSIGNMENT 1\JPEG\JINCLUDE.H
C:\USERS\RCHENG\DROPBOX\JHU2013FALL\COMPUTERGRAPHICS\ASSIGNMENT 1\JPEG\JCONFIG.H
C:\PROGRAM FILES (X86)\MICROSOFT VISUAL STUDIO 10.0\VC\INCLUDE\STDDEF.H
C:\PROGRAM FILES (X86)\MICROSOFT VISUAL STUDIO 10.0\VC\INCLUDE\CRTDEFS.H
C:\PROGRAM FILES (X86)\MICROSOFT VISUAL STUDIO 10.0\VC\INCLUDE\SAL.H
C:\PROGRAM FILES (X86)\MICROSOFT VISUAL STUDIO 10.0\VC\INCLUDE\CODEANALYSIS\SOURCEANNOTATIONS.H
C:\PROGRAM FILES (X86)\MICROSOFT VISUAL STUDIO 10.0\VC\INCLUDE\VADEFS.H
C:\PROGRAM FILES (X86)\MICROSOFT VISUAL STUDIO 10.0\VC\INCLUDE\STDLIB.H
C:\PROGRAM FILES (X86)\MICROSOFT VISUAL STUDIO 10.0\VC\INCLUDE\LIMITS.H
C:\PROGRAM FILES (X86)\MICROSOFT VISUAL STUDIO 10.0\VC\INCLUDE\STDIO.H
C:\PROGRAM FILES (X86)\MICROSOFT VISUAL STUDIO 10.0\VC\INCLUDE\SWPRINTF.INL
C:\PROGRAM FILES (X86)\MICROSOFT VISUAL STUDIO 10.0\VC\INCLUDE\STRING.H
C:\USERS\RCHENG\DROPBOX\JHU2013FALL\COMPUTERGRAPHICS\ASSIGNMENT 1\JPEG\JPEGLIB.H
C:\USERS\RCHENG\DROPBOX\JHU2013FALL\COMPUTERGRAPHICS\ASSIGNMENT 1\JPEG\JMORECFG.H
C:\USERS\RCHENG\DROPBOX\JHU2013FALL\COMPUTERGRAPHICS\ASSIGNMENT 1\JPEG\JPEGINT.H
C:\USERS\RCHENG\DROPBOX\JHU2013FALL\COMPUTERGRAPHICS\ASSIGNMENT 1\JPEG\JERROR.H
^C:\USERS\RCHENG\DROPBOX\JHU2013FALL\COMPUTERGRAPHICS\ASSIGNMENT 1\JPEG\JDINPUT.CPP
C:\USERS\RCHENG\DROPBOX\JHU2013FALL\COMPUTERGRAPHICS\ASSIGNMENT 1\JPEG\JINCLUDE.H
C:\USERS\RCHENG\DROPBOX\JHU2013FALL\COMPUTERGRAPHICS\ASSIGNMENT 1\JPEG\JCONFIG.H
C:\PROGRAM FILES (X86)\MICROSOFT VISUAL STUDIO 10.0\VC\INCLUDE\STDDEF.H
C:\PROGRAM FILES (X86)\MICROSOFT VISUAL STUDIO 10.0\VC\INCLUDE\CRTDEFS.H
C:\PROGRAM FILES (X86)\MICROSOFT VISUAL STUDIO 10.0\VC\INCLUDE\SAL.H
C:\PROGRAM FILES (X86)\MICROSOFT VISUAL STUDIO 10.0\VC\INCLUDE\CODEANALYSIS\SOURCEANNOTATIONS.H
C:\PROGRAM FILES (X86)\MICROSOFT VISUAL STUDIO 10.0\VC\INCLUDE\VADEFS.H
C:\PROGRAM FILES (X86)\MICROSOFT VISUAL STUDIO 10.0\VC\INCLUDE\STDLIB.H
C:\PROGRAM FILES (X86)\MICROSOFT VISUAL STUDIO 10.0\VC\INCLUDE\LIMITS.H
C:\PROGRAM FILES (X86)\MICROSOFT VISUAL STUDIO 10.0\VC\INCLUDE\STDIO.H
C:\PROGRAM FILES (X86)\MICROSOFT VISUAL STUDIO 10.0\VC\INCLUDE\SWPRINTF.INL
C:\PROGRAM FILES (X86)\MICROSOFT VISUAL STUDIO 10.0\VC\INCLUDE\STRING.H
C:\USERS\RCHENG\DROPBOX\JHU2013FALL\COMPUTERGRAPHICS\ASSIGNMENT 1\JPEG\JPEGLIB.H
C:\USERS\RCHENG\DROPBOX\JHU2013FALL\COMPUTERGRAPHICS\ASSIGNMENT 1\JPEG\JMORECFG.H
C:\USERS\RCHENG\DROPBOX\JHU2013FALL\COMPUTERGRAPHICS\ASSIGNMENT 1\JPEG\JPEGINT.H
C:\USERS\RCHENG\DROPBOX\JHU2013FALL\COMPUTERGRAPHICS\ASSIGNMENT 1\JPEG\JERROR.H
^C:\USERS\RCHENG\DROPBOX\JHU2013FALL\COMPUTERGRAPHICS\ASSIGNMENT 1\JPEG\JDHUFF.CPP
C:\USERS\RCHENG\DROPBOX\JHU2013FALL\COMPUTERGRAPHICS\ASSIGNMENT 1\JPEG\JINCLUDE.H
C:\USERS\RCHENG\DROPBOX\JHU2013FALL\COMPUTERGRAPHICS\ASSIGNMENT 1\JPEG\JCONFIG.H
C:\PROGRAM FILES (X86)\MICROSOFT VISUAL STUDIO 10.0\VC\INCLUDE\STDDEF.H
C:\PROGRAM FILES (X86)\MICROSOFT VISUAL STUDIO 10.0\VC\INCLUDE\CRTDEFS.H
C:\PROGRAM FILES (X86)\MICROSOFT VISUAL STUDIO 10.0\VC\INCLUDE\SAL.H
C:\PROGRAM FILES (X86)\MICROSOFT VISUAL STUDIO 10.0\VC\INCLUDE\CODEANALYSIS\SOURCEANNOTATIONS.H
C:\PROGRAM FILES (X86)\MICROSOFT VISUAL STUDIO 10.0\VC\INCLUDE\VADEFS.H
C:\PROGRAM FILES (X86)\MICROSOFT VISUAL STUDIO 10.0\VC\INCLUDE\STDLIB.H
C:\PROGRAM FILES (X86)\MICROSOFT VISUAL STUDIO 10.0\VC\INCLUDE\LIMITS.H
C:\PROGRAM FILES (X86)\MICROSOFT VISUAL STUDIO 10.0\VC\INCLUDE\STDIO.H
C:\PROGRAM FILES (X86)\MICROSOFT VISUAL STUDIO 10.0\VC\INCLUDE\SWPRINTF.INL
C:\PROGRAM FILES (X86)\MICROSOFT VISUAL STUDIO 10.0\VC\INCLUDE\STRING.H
C:\USERS\RCHENG\DROPBOX\JHU2013FALL\COMPUTERGRAPHICS\ASSIGNMENT 1\JPEG\JPEGLIB.H
C:\USERS\RCHENG\DROPBOX\JHU2013FALL\COMPUTERGRAPHICS\ASSIGNMENT 1\JPEG\JMORECFG.H
C:\USERS\RCHENG\DROPBOX\JHU2013FALL\COMPUTERGRAPHICS\ASSIGNMENT 1\JPEG\JPEGINT.H
C:\USERS\RCHENG\DROPBOX\JHU2013FALL\COMPUTERGRAPHICS\ASSIGNMENT 1\JPEG\JERROR.H
C:\USERS\RCHENG\DROPBOX\JHU2013FALL\COMPUTERGRAPHICS\ASSIGNMENT 1\JPEG\JDHUFF.H
^C:\USERS\RCHENG\DROPBOX\JHU2013FALL\COMPUTERGRAPHICS\ASSIGNMENT 1\JPEG\JDDCTMGR.CPP
C:\USERS\RCHENG\DROPBOX\JHU2013FALL\COMPUTERGRAPHICS\ASSIGNMENT 1\JPEG\JINCLUDE.H
C:\USERS\RCHENG\DROPBOX\JHU2013FALL\COMPUTERGRAPHICS\ASSIGNMENT 1\JPEG\JCONFIG.H
C:\PROGRAM FILES (X86)\MICROSOFT VISUAL STUDIO 10.0\VC\INCLUDE\STDDEF.H
C:\PROGRAM FILES (X86)\MICROSOFT VISUAL STUDIO 10.0\VC\INCLUDE\CRTDEFS.H
C:\PROGRAM FILES (X86)\MICROSOFT VISUAL STUDIO 10.0\VC\INCLUDE\SAL.H
C:\PROGRAM FILES (X86)\MICROSOFT VISUAL STUDIO 10.0\VC\INCLUDE\CODEANALYSIS\SOURCEANNOTATIONS.H
C:\PROGRAM FILES (X86)\MICROSOFT VISUAL STUDIO 10.0\VC\INCLUDE\VADEFS.H
C:\PROGRAM FILES (X86)\MICROSOFT VISUAL STUDIO 10.0\VC\INCLUDE\STDLIB.H
C:\PROGRAM FILES (X86)\MICROSOFT VISUAL STUDIO 10.0\VC\INCLUDE\LIMITS.H
C:\PROGRAM FILES (X86)\MICROSOFT VISUAL STUDIO 10.0\VC\INCLUDE\STDIO.H
C:\PROGRAM FILES (X86)\MICROSOFT VISUAL STUDIO 10.0\VC\INCLUDE\SWPRINTF.INL
C:\PROGRAM FILES (X86)\MICROSOFT VISUAL STUDIO 10.0\VC\INCLUDE\STRING.H
C:\USERS\RCHENG\DROPBOX\JHU2013FALL\COMPUTERGRAPHICS\ASSIGNMENT 1\JPEG\JPEGLIB.H
C:\USERS\RCHENG\DROPBOX\JHU2013FALL\COMPUTERGRAPHICS\ASSIGNMENT 1\JPEG\JMORECFG.H
C:\USERS\RCHENG\DROPBOX\JHU2013FALL\COMPUTERGRAPHICS\ASSIGNMENT 1\JPEG\JPEGINT.H
C:\USERS\RCHENG\DROPBOX\JHU2013FALL\COMPUTERGRAPHICS\ASSIGNMENT 1\JPEG\JERROR.H
C:\USERS\RCHENG\DROPBOX\JHU2013FALL\COMPUTERGRAPHICS\ASSIGNMENT 1\JPEG\JDCT.H
^C:\USERS\RCHENG\DROPBOX\JHU2013FALL\COMPUTERGRAPHICS\ASSIGNMENT 1\JPEG\JDCOLOR.CPP
C:\USERS\RCHENG\DROPBOX\JHU2013FALL\COMPUTERGRAPHICS\ASSIGNMENT 1\JPEG\JINCLUDE.H
C:\USERS\RCHENG\DROPBOX\JHU2013FALL\COMPUTERGRAPHICS\ASSIGNMENT 1\JPEG\JCONFIG.H
C:\PROGRAM FILES (X86)\MICROSOFT VISUAL STUDIO 10.0\VC\INCLUDE\STDDEF.H
C:\PROGRAM FILES (X86)\MICROSOFT VISUAL STUDIO 10.0\VC\INCLUDE\CRTDEFS.H
C:\PROGRAM FILES (X86)\MICROSOFT VISUAL STUDIO 10.0\VC\INCLUDE\SAL.H
C:\PROGRAM FILES (X86)\MICROSOFT VISUAL STUDIO 10.0\VC\INCLUDE\CODEANALYSIS\SOURCEANNOTATIONS.H
C:\PROGRAM FILES (X86)\MICROSOFT VISUAL STUDIO 10.0\VC\INCLUDE\VADEFS.H
C:\PROGRAM FILES (X86)\MICROSOFT VISUAL STUDIO 10.0\VC\INCLUDE\STDLIB.H
C:\PROGRAM FILES (X86)\MICROSOFT VISUAL STUDIO 10.0\VC\INCLUDE\LIMITS.H
C:\PROGRAM FILES (X86)\MICROSOFT VISUAL STUDIO 10.0\VC\INCLUDE\STDIO.H
C:\PROGRAM FILES (X86)\MICROSOFT VISUAL STUDIO 10.0\VC\INCLUDE\SWPRINTF.INL
C:\PROGRAM FILES (X86)\MICROSOFT VISUAL STUDIO 10.0\VC\INCLUDE\STRING.H
C:\USERS\RCHENG\DROPBOX\JHU2013FALL\COMPUTERGRAPHICS\ASSIGNMENT 1\JPEG\JPEGLIB.H
C:\USERS\RCHENG\DROPBOX\JHU2013FALL\COMPUTERGRAPHICS\ASSIGNMENT 1\JPEG\JMORECFG.H
C:\USERS\RCHENG\DROPBOX\JHU2013FALL\COMPUTERGRAPHICS\ASSIGNMENT 1\JPEG\JPEGINT.H
C:\USERS\RCHENG\DROPBOX\JHU2013FALL\COMPUTERGRAPHICS\ASSIGNMENT 1\JPEG\JERROR.H
^C:\USERS\RCHENG\DROPBOX\JHU2013FALL\COMPUTERGRAPHICS\ASSIGNMENT 1\JPEG\JDCOEFCT.CPP
C:\USERS\RCHENG\DROPBOX\JHU2013FALL\COMPUTERGRAPHICS\ASSIGNMENT 1\JPEG\JINCLUDE.H
C:\USERS\RCHENG\DROPBOX\JHU2013FALL\COMPUTERGRAPHICS\ASSIGNMENT 1\JPEG\JCONFIG.H
C:\PROGRAM FILES (X86)\MICROSOFT VISUAL STUDIO 10.0\VC\INCLUDE\STDDEF.H
C:\PROGRAM FILES (X86)\MICROSOFT VISUAL STUDIO 10.0\VC\INCLUDE\CRTDEFS.H
C:\PROGRAM FILES (X86)\MICROSOFT VISUAL STUDIO 10.0\VC\INCLUDE\SAL.H
C:\PROGRAM FILES (X86)\MICROSOFT VISUAL STUDIO 10.0\VC\INCLUDE\CODEANALYSIS\SOURCEANNOTATIONS.H
C:\PROGRAM FILES (X86)\MICROSOFT VISUAL STUDIO 10.0\VC\INCLUDE\VADEFS.H
C:\PROGRAM FILES (X86)\MICROSOFT VISUAL STUDIO 10.0\VC\INCLUDE\STDLIB.H
C:\PROGRAM FILES (X86)\MICROSOFT VISUAL STUDIO 10.0\VC\INCLUDE\LIMITS.H
C:\PROGRAM FILES (X86)\MICROSOFT VISUAL STUDIO 10.0\VC\INCLUDE\STDIO.H
C:\PROGRAM FILES (X86)\MICROSOFT VISUAL STUDIO 10.0\VC\INCLUDE\SWPRINTF.INL
C:\PROGRAM FILES (X86)\MICROSOFT VISUAL STUDIO 10.0\VC\INCLUDE\STRING.H
C:\USERS\RCHENG\DROPBOX\JHU2013FALL\COMPUTERGRAPHICS\ASSIGNMENT 1\JPEG\JPEGLIB.H
C:\USERS\RCHENG\DROPBOX\JHU2013FALL\COMPUTERGRAPHICS\ASSIGNMENT 1\JPEG\JMORECFG.H
C:\USERS\RCHENG\DROPBOX\JHU2013FALL\COMPUTERGRAPHICS\ASSIGNMENT 1\JPEG\JPEGINT.H
C:\USERS\RCHENG\DROPBOX\JHU2013FALL\COMPUTERGRAPHICS\ASSIGNMENT 1\JPEG\JERROR.H
^C:\USERS\RCHENG\DROPBOX\JHU2013FALL\COMPUTERGRAPHICS\ASSIGNMENT 1\JPEG\JDATASRC.CPP
C:\USERS\RCHENG\DROPBOX\JHU2013FALL\COMPUTERGRAPHICS\ASSIGNMENT 1\JPEG\JINCLUDE.H
C:\USERS\RCHENG\DROPBOX\JHU2013FALL\COMPUTERGRAPHICS\ASSIGNMENT 1\JPEG\JCONFIG.H
C:\PROGRAM FILES (X86)\MICROSOFT VISUAL STUDIO 10.0\VC\INCLUDE\STDDEF.H
C:\PROGRAM FILES (X86)\MICROSOFT VISUAL STUDIO 10.0\VC\INCLUDE\CRTDEFS.H
C:\PROGRAM FILES (X86)\MICROSOFT VISUAL STUDIO 10.0\VC\INCLUDE\SAL.H
C:\PROGRAM FILES (X86)\MICROSOFT VISUAL STUDIO 10.0\VC\INCLUDE\CODEANALYSIS\SOURCEANNOTATIONS.H
C:\PROGRAM FILES (X86)\MICROSOFT VISUAL STUDIO 10.0\VC\INCLUDE\VADEFS.H
C:\PROGRAM FILES (X86)\MICROSOFT VISUAL STUDIO 10.0\VC\INCLUDE\STDLIB.H
C:\PROGRAM FILES (X86)\MICROSOFT VISUAL STUDIO 10.0\VC\INCLUDE\LIMITS.H
C:\PROGRAM FILES (X86)\MICROSOFT VISUAL STUDIO 10.0\VC\INCLUDE\STDIO.H
C:\PROGRAM FILES (X86)\MICROSOFT VISUAL STUDIO 10.0\VC\INCLUDE\SWPRINTF.INL
C:\PROGRAM FILES (X86)\MICROSOFT VISUAL STUDIO 10.0\VC\INCLUDE\STRING.H
C:\USERS\RCHENG\DROPBOX\JHU2013FALL\COMPUTERGRAPHICS\ASSIGNMENT 1\JPEG\JPEGLIB.H
C:\USERS\RCHENG\DROPBOX\JHU2013FALL\COMPUTERGRAPHICS\ASSIGNMENT 1\JPEG\JMORECFG.H
C:\USERS\RCHENG\DROPBOX\JHU2013FALL\COMPUTERGRAPHICS\ASSIGNMENT 1\JPEG\JERROR.H
^C:\USERS\RCHENG\DROPBOX\JHU2013FALL\COMPUTERGRAPHICS\ASSIGNMENT 1\JPEG\JDATADST.CPP
C:\USERS\RCHENG\DROPBOX\JHU2013FALL\COMPUTERGRAPHICS\ASSIGNMENT 1\JPEG\JINCLUDE.H
C:\USERS\RCHENG\DROPBOX\JHU2013FALL\COMPUTERGRAPHICS\ASSIGNMENT 1\JPEG\JCONFIG.H
C:\PROGRAM FILES (X86)\MICROSOFT VISUAL STUDIO 10.0\VC\INCLUDE\STDDEF.H
C:\PROGRAM FILES (X86)\MICROSOFT VISUAL STUDIO 10.0\VC\INCLUDE\CRTDEFS.H
C:\PROGRAM FILES (X86)\MICROSOFT VISUAL STUDIO 10.0\VC\INCLUDE\SAL.H
C:\PROGRAM FILES (X86)\MICROSOFT VISUAL STUDIO 10.0\VC\INCLUDE\CODEANALYSIS\SOURCEANNOTATIONS.H
C:\PROGRAM FILES (X86)\MICROSOFT VISUAL STUDIO 10.0\VC\INCLUDE\VADEFS.H
C:\PROGRAM FILES (X86)\MICROSOFT VISUAL STUDIO 10.0\VC\INCLUDE\STDLIB.H
C:\PROGRAM FILES (X86)\MICROSOFT VISUAL STUDIO 10.0\VC\INCLUDE\LIMITS.H
C:\PROGRAM FILES (X86)\MICROSOFT VISUAL STUDIO 10.0\VC\INCLUDE\STDIO.H
C:\PROGRAM FILES (X86)\MICROSOFT VISUAL STUDIO 10.0\VC\INCLUDE\SWPRINTF.INL
C:\PROGRAM FILES (X86)\MICROSOFT VISUAL STUDIO 10.0\VC\INCLUDE\STRING.H
C:\USERS\RCHENG\DROPBOX\JHU2013FALL\COMPUTERGRAPHICS\ASSIGNMENT 1\JPEG\JPEGLIB.H
C:\USERS\RCHENG\DROPBOX\JHU2013FALL\COMPUTERGRAPHICS\ASSIGNMENT 1\JPEG\JMORECFG.H
C:\USERS\RCHENG\DROPBOX\JHU2013FALL\COMPUTERGRAPHICS\ASSIGNMENT 1\JPEG\JERROR.H
^C:\USERS\RCHENG\DROPBOX\JHU2013FALL\COMPUTERGRAPHICS\ASSIGNMENT 1\JPEG\JDAPISTD.CPP
C:\USERS\RCHENG\DROPBOX\JHU2013FALL\COMPUTERGRAPHICS\ASSIGNMENT 1\JPEG\JINCLUDE.H
C:\USERS\RCHENG\DROPBOX\JHU2013FALL\COMPUTERGRAPHICS\ASSIGNMENT 1\JPEG\JCONFIG.H
C:\PROGRAM FILES (X86)\MICROSOFT VISUAL STUDIO 10.0\VC\INCLUDE\STDDEF.H
C:\PROGRAM FILES (X86)\MICROSOFT VISUAL STUDIO 10.0\VC\INCLUDE\CRTDEFS.H
C:\PROGRAM FILES (X86)\MICROSOFT VISUAL STUDIO 10.0\VC\INCLUDE\SAL.H
C:\PROGRAM FILES (X86)\MICROSOFT VISUAL STUDIO 10.0\VC\INCLUDE\CODEANALYSIS\SOURCEANNOTATIONS.H
C:\PROGRAM FILES (X86)\MICROSOFT VISUAL STUDIO 10.0\VC\INCLUDE\VADEFS.H
C:\PROGRAM FILES (X86)\MICROSOFT VISUAL STUDIO 10.0\VC\INCLUDE\STDLIB.H
C:\PROGRAM FILES (X86)\MICROSOFT VISUAL STUDIO 10.0\VC\INCLUDE\LIMITS.H
C:\PROGRAM FILES (X86)\MICROSOFT VISUAL STUDIO 10.0\VC\INCLUDE\STDIO.H
C:\PROGRAM FILES (X86)\MICROSOFT VISUAL STUDIO 10.0\VC\INCLUDE\SWPRINTF.INL
C:\PROGRAM FILES (X86)\MICROSOFT VISUAL STUDIO 10.0\VC\INCLUDE\STRING.H
C:\USERS\RCHENG\DROPBOX\JHU2013FALL\COMPUTERGRAPHICS\ASSIGNMENT 1\JPEG\JPEGLIB.H
C:\USERS\RCHENG\DROPBOX\JHU2013FALL\COMPUTERGRAPHICS\ASSIGNMENT 1\JPEG\JMORECFG.H
C:\USERS\RCHENG\DROPBOX\JHU2013FALL\COMPUTERGRAPHICS\ASSIGNMENT 1\JPEG\JPEGINT.H
C:\USERS\RCHENG\DROPBOX\JHU2013FALL\COMPUTERGRAPHICS\ASSIGNMENT 1\JPEG\JERROR.H
^C:\USERS\RCHENG\DROPBOX\JHU2013FALL\COMPUTERGRAPHICS\ASSIGNMENT 1\JPEG\JDAPIMIN.CPP
C:\USERS\RCHENG\DROPBOX\JHU2013FALL\COMPUTERGRAPHICS\ASSIGNMENT 1\JPEG\JINCLUDE.H
C:\USERS\RCHENG\DROPBOX\JHU2013FALL\COMPUTERGRAPHICS\ASSIGNMENT 1\JPEG\JCONFIG.H
C:\PROGRAM FILES (X86)\MICROSOFT VISUAL STUDIO 10.0\VC\INCLUDE\STDDEF.H
C:\PROGRAM FILES (X86)\MICROSOFT VISUAL STUDIO 10.0\VC\INCLUDE\CRTDEFS.H
C:\PROGRAM FILES (X86)\MICROSOFT VISUAL STUDIO 10.0\VC\INCLUDE\SAL.H
C:\PROGRAM FILES (X86)\MICROSOFT VISUAL STUDIO 10.0\VC\INCLUDE\CODEANALYSIS\SOURCEANNOTATIONS.H
C:\PROGRAM FILES (X86)\MICROSOFT VISUAL STUDIO 10.0\VC\INCLUDE\VADEFS.H
C:\PROGRAM FILES (X86)\MICROSOFT VISUAL STUDIO 10.0\VC\INCLUDE\STDLIB.H
C:\PROGRAM FILES (X86)\MICROSOFT VISUAL STUDIO 10.0\VC\INCLUDE\LIMITS.H
C:\PROGRAM FILES (X86)\MICROSOFT VISUAL STUDIO 10.0\VC\INCLUDE\STDIO.H
C:\PROGRAM FILES (X86)\MICROSOFT VISUAL STUDIO 10.0\VC\INCLUDE\SWPRINTF.INL
C:\PROGRAM FILES (X86)\MICROSOFT VISUAL STUDIO 10.0\VC\INCLUDE\STRING.H
C:\USERS\RCHENG\DROPBOX\JHU2013FALL\COMPUTERGRAPHICS\ASSIGNMENT 1\JPEG\JPEGLIB.H
C:\USERS\RCHENG\DROPBOX\JHU2013FALL\COMPUTERGRAPHICS\ASSIGNMENT 1\JPEG\JMORECFG.H
C:\USERS\RCHENG\DROPBOX\JHU2013FALL\COMPUTERGRAPHICS\ASSIGNMENT 1\JPEG\JPEGINT.H
C:\USERS\RCHENG\DROPBOX\JHU2013FALL\COMPUTERGRAPHICS\ASSIGNMENT 1\JPEG\JERROR.H
^C:\USERS\RCHENG\DROPBOX\JHU2013FALL\COMPUTERGRAPHICS\ASSIGNMENT 1\JPEG\JCTRANS.CPP
C:\USERS\RCHENG\DROPBOX\JHU2013FALL\COMPUTERGRAPHICS\ASSIGNMENT 1\JPEG\JINCLUDE.H
C:\USERS\RCHENG\DROPBOX\JHU2013FALL\COMPUTERGRAPHICS\ASSIGNMENT 1\JPEG\JCONFIG.H
C:\PROGRAM FILES (X86)\MICROSOFT VISUAL STUDIO 10.0\VC\INCLUDE\STDDEF.H
C:\PROGRAM FILES (X86)\MICROSOFT VISUAL STUDIO 10.0\VC\INCLUDE\CRTDEFS.H
C:\PROGRAM FILES (X86)\MICROSOFT VISUAL STUDIO 10.0\VC\INCLUDE\SAL.H
C:\PROGRAM FILES (X86)\MICROSOFT VISUAL STUDIO 10.0\VC\INCLUDE\CODEANALYSIS\SOURCEANNOTATIONS.H
C:\PROGRAM FILES (X86)\MICROSOFT VISUAL STUDIO 10.0\VC\INCLUDE\VADEFS.H
C:\PROGRAM FILES (X86)\MICROSOFT VISUAL STUDIO 10.0\VC\INCLUDE\STDLIB.H
C:\PROGRAM FILES (X86)\MICROSOFT VISUAL STUDIO 10.0\VC\INCLUDE\LIMITS.H
C:\PROGRAM FILES (X86)\MICROSOFT VISUAL STUDIO 10.0\VC\INCLUDE\STDIO.H
C:\PROGRAM FILES (X86)\MICROSOFT VISUAL STUDIO 10.0\VC\INCLUDE\SWPRINTF.INL
C:\PROGRAM FILES (X86)\MICROSOFT VISUAL STUDIO 10.0\VC\INCLUDE\STRING.H
C:\USERS\RCHENG\DROPBOX\JHU2013FALL\COMPUTERGRAPHICS\ASSIGNMENT 1\JPEG\JPEGLIB.H
C:\USERS\RCHENG\DROPBOX\JHU2013FALL\COMPUTERGRAPHICS\ASSIGNMENT 1\JPEG\JMORECFG.H
C:\USERS\RCHENG\DROPBOX\JHU2013FALL\COMPUTERGRAPHICS\ASSIGNMENT 1\JPEG\JPEGINT.H
C:\USERS\RCHENG\DROPBOX\JHU2013FALL\COMPUTERGRAPHICS\ASSIGNMENT 1\JPEG\JERROR.H
^C:\USERS\RCHENG\DROPBOX\JHU2013FALL\COMPUTERGRAPHICS\ASSIGNMENT 1\JPEG\JCSAMPLE.CPP
C:\USERS\RCHENG\DROPBOX\JHU2013FALL\COMPUTERGRAPHICS\ASSIGNMENT 1\JPEG\JINCLUDE.H
C:\USERS\RCHENG\DROPBOX\JHU2013FALL\COMPUTERGRAPHICS\ASSIGNMENT 1\JPEG\JCONFIG.H
C:\PROGRAM FILES (X86)\MICROSOFT VISUAL STUDIO 10.0\VC\INCLUDE\STDDEF.H
C:\PROGRAM FILES (X86)\MICROSOFT VISUAL STUDIO 10.0\VC\INCLUDE\CRTDEFS.H
C:\PROGRAM FILES (X86)\MICROSOFT VISUAL STUDIO 10.0\VC\INCLUDE\SAL.H
C:\PROGRAM FILES (X86)\MICROSOFT VISUAL STUDIO 10.0\VC\INCLUDE\CODEANALYSIS\SOURCEANNOTATIONS.H
C:\PROGRAM FILES (X86)\MICROSOFT VISUAL STUDIO 10.0\VC\INCLUDE\VADEFS.H
C:\PROGRAM FILES (X86)\MICROSOFT VISUAL STUDIO 10.0\VC\INCLUDE\STDLIB.H
C:\PROGRAM FILES (X86)\MICROSOFT VISUAL STUDIO 10.0\VC\INCLUDE\LIMITS.H
C:\PROGRAM FILES (X86)\MICROSOFT VISUAL STUDIO 10.0\VC\INCLUDE\STDIO.H
C:\PROGRAM FILES (X86)\MICROSOFT VISUAL STUDIO 10.0\VC\INCLUDE\SWPRINTF.INL
C:\PROGRAM FILES (X86)\MICROSOFT VISUAL STUDIO 10.0\VC\INCLUDE\STRING.H
C:\USERS\RCHENG\DROPBOX\JHU2013FALL\COMPUTERGRAPHICS\ASSIGNMENT 1\JPEG\JPEGLIB.H
C:\USERS\RCHENG\DROPBOX\JHU2013FALL\COMPUTERGRAPHICS\ASSIGNMENT 1\JPEG\JMORECFG.H
C:\USERS\RCHENG\DROPBOX\JHU2013FALL\COMPUTERGRAPHICS\ASSIGNMENT 1\JPEG\JPEGINT.H
C:\USERS\RCHENG\DROPBOX\JHU2013FALL\COMPUTERGRAPHICS\ASSIGNMENT 1\JPEG\JERROR.H
^C:\USERS\RCHENG\DROPBOX\JHU2013FALL\COMPUTERGRAPHICS\ASSIGNMENT 1\JPEG\JCPREPCT.CPP
C:\USERS\RCHENG\DROPBOX\JHU2013FALL\COMPUTERGRAPHICS\ASSIGNMENT 1\JPEG\JINCLUDE.H
C:\USERS\RCHENG\DROPBOX\JHU2013FALL\COMPUTERGRAPHICS\ASSIGNMENT 1\JPEG\JCONFIG.H
C:\PROGRAM FILES (X86)\MICROSOFT VISUAL STUDIO 10.0\VC\INCLUDE\STDDEF.H
C:\PROGRAM FILES (X86)\MICROSOFT VISUAL STUDIO 10.0\VC\INCLUDE\CRTDEFS.H
C:\PROGRAM FILES (X86)\MICROSOFT VISUAL STUDIO 10.0\VC\INCLUDE\SAL.H
C:\PROGRAM FILES (X86)\MICROSOFT VISUAL STUDIO 10.0\VC\INCLUDE\CODEANALYSIS\SOURCEANNOTATIONS.H
C:\PROGRAM FILES (X86)\MICROSOFT VISUAL STUDIO 10.0\VC\INCLUDE\VADEFS.H
C:\PROGRAM FILES (X86)\MICROSOFT VISUAL STUDIO 10.0\VC\INCLUDE\STDLIB.H
C:\PROGRAM FILES (X86)\MICROSOFT VISUAL STUDIO 10.0\VC\INCLUDE\LIMITS.H
C:\PROGRAM FILES (X86)\MICROSOFT VISUAL STUDIO 10.0\VC\INCLUDE\STDIO.H
C:\PROGRAM FILES (X86)\MICROSOFT VISUAL STUDIO 10.0\VC\INCLUDE\SWPRINTF.INL
C:\PROGRAM FILES (X86)\MICROSOFT VISUAL STUDIO 10.0\VC\INCLUDE\STRING.H
C:\USERS\RCHENG\DROPBOX\JHU2013FALL\COMPUTERGRAPHICS\ASSIGNMENT 1\JPEG\JPEGLIB.H
C:\USERS\RCHENG\DROPBOX\JHU2013FALL\COMPUTERGRAPHICS\ASSIGNMENT 1\JPEG\JMORECFG.H
C:\USERS\RCHENG\DROPBOX\JHU2013FALL\COMPUTERGRAPHICS\ASSIGNMENT 1\JPEG\JPEGINT.H
C:\USERS\RCHENG\DROPBOX\JHU2013FALL\COMPUTERGRAPHICS\ASSIGNMENT 1\JPEG\JERROR.H
^C:\USERS\RCHENG\DROPBOX\JHU2013FALL\COMPUTERGRAPHICS\ASSIGNMENT 1\JPEG\JCPHUFF.CPP
C:\USERS\RCHENG\DROPBOX\JHU2013FALL\COMPUTERGRAPHICS\ASSIGNMENT 1\JPEG\JINCLUDE.H
C:\USERS\RCHENG\DROPBOX\JHU2013FALL\COMPUTERGRAPHICS\ASSIGNMENT 1\JPEG\JCONFIG.H
C:\PROGRAM FILES (X86)\MICROSOFT VISUAL STUDIO 10.0\VC\INCLUDE\STDDEF.H
C:\PROGRAM FILES (X86)\MICROSOFT VISUAL STUDIO 10.0\VC\INCLUDE\CRTDEFS.H
C:\PROGRAM FILES (X86)\MICROSOFT VISUAL STUDIO 10.0\VC\INCLUDE\SAL.H
C:\PROGRAM FILES (X86)\MICROSOFT VISUAL STUDIO 10.0\VC\INCLUDE\CODEANALYSIS\SOURCEANNOTATIONS.H
C:\PROGRAM FILES (X86)\MICROSOFT VISUAL STUDIO 10.0\VC\INCLUDE\VADEFS.H
C:\PROGRAM FILES (X86)\MICROSOFT VISUAL STUDIO 10.0\VC\INCLUDE\STDLIB.H
C:\PROGRAM FILES (X86)\MICROSOFT VISUAL STUDIO 10.0\VC\INCLUDE\LIMITS.H
C:\PROGRAM FILES (X86)\MICROSOFT VISUAL STUDIO 10.0\VC\INCLUDE\STDIO.H
C:\PROGRAM FILES (X86)\MICROSOFT VISUAL STUDIO 10.0\VC\INCLUDE\SWPRINTF.INL
C:\PROGRAM FILES (X86)\MICROSOFT VISUAL STUDIO 10.0\VC\INCLUDE\STRING.H
C:\USERS\RCHENG\DROPBOX\JHU2013FALL\COMPUTERGRAPHICS\ASSIGNMENT 1\JPEG\JPEGLIB.H
C:\USERS\RCHENG\DROPBOX\JHU2013FALL\COMPUTERGRAPHICS\ASSIGNMENT 1\JPEG\JMORECFG.H
C:\USERS\RCHENG\DROPBOX\JHU2013FALL\COMPUTERGRAPHICS\ASSIGNMENT 1\JPEG\JPEGINT.H
C:\USERS\RCHENG\DROPBOX\JHU2013FALL\COMPUTERGRAPHICS\ASSIGNMENT 1\JPEG\JERROR.H
C:\USERS\RCHENG\DROPBOX\JHU2013FALL\COMPUTERGRAPHICS\ASSIGNMENT 1\JPEG\JCHUFF.H
^C:\USERS\RCHENG\DROPBOX\JHU2013FALL\COMPUTERGRAPHICS\ASSIGNMENT 1\JPEG\JCPARAM.CPP
C:\USERS\RCHENG\DROPBOX\JHU2013FALL\COMPUTERGRAPHICS\ASSIGNMENT 1\JPEG\JINCLUDE.H
C:\USERS\RCHENG\DROPBOX\JHU2013FALL\COMPUTERGRAPHICS\ASSIGNMENT 1\JPEG\JCONFIG.H
C:\PROGRAM FILES (X86)\MICROSOFT VISUAL STUDIO 10.0\VC\INCLUDE\STDDEF.H
C:\PROGRAM FILES (X86)\MICROSOFT VISUAL STUDIO 10.0\VC\INCLUDE\CRTDEFS.H
C:\PROGRAM FILES (X86)\MICROSOFT VISUAL STUDIO 10.0\VC\INCLUDE\SAL.H
C:\PROGRAM FILES (X86)\MICROSOFT VISUAL STUDIO 10.0\VC\INCLUDE\CODEANALYSIS\SOURCEANNOTATIONS.H
C:\PROGRAM FILES (X86)\MICROSOFT VISUAL STUDIO 10.0\VC\INCLUDE\VADEFS.H
C:\PROGRAM FILES (X86)\MICROSOFT VISUAL STUDIO 10.0\VC\INCLUDE\STDLIB.H
C:\PROGRAM FILES (X86)\MICROSOFT VISUAL STUDIO 10.0\VC\INCLUDE\LIMITS.H
C:\PROGRAM FILES (X86)\MICROSOFT VISUAL STUDIO 10.0\VC\INCLUDE\STDIO.H
C:\PROGRAM FILES (X86)\MICROSOFT VISUAL STUDIO 10.0\VC\INCLUDE\SWPRINTF.INL
C:\PROGRAM FILES (X86)\MICROSOFT VISUAL STUDIO 10.0\VC\INCLUDE\STRING.H
C:\USERS\RCHENG\DROPBOX\JHU2013FALL\COMPUTERGRAPHICS\ASSIGNMENT 1\JPEG\JPEGLIB.H
C:\USERS\RCHENG\DROPBOX\JHU2013FALL\COMPUTERGRAPHICS\ASSIGNMENT 1\JPEG\JMORECFG.H
C:\USERS\RCHENG\DROPBOX\JHU2013FALL\COMPUTERGRAPHICS\ASSIGNMENT 1\JPEG\JPEGINT.H
C:\USERS\RCHENG\DROPBOX\JHU2013FALL\COMPUTERGRAPHICS\ASSIGNMENT 1\JPEG\JERROR.H
^C:\USERS\RCHENG\DROPBOX\JHU2013FALL\COMPUTERGRAPHICS\ASSIGNMENT 1\JPEG\JCOMAPI.CPP
C:\USERS\RCHENG\DROPBOX\JHU2013FALL\COMPUTERGRAPHICS\ASSIGNMENT 1\JPEG\JINCLUDE.H
C:\USERS\RCHENG\DROPBOX\JHU2013FALL\COMPUTERGRAPHICS\ASSIGNMENT 1\JPEG\JCONFIG.H
C:\PROGRAM FILES (X86)\MICROSOFT VISUAL STUDIO 10.0\VC\INCLUDE\STDDEF.H
C:\PROGRAM FILES (X86)\MICROSOFT VISUAL STUDIO 10.0\VC\INCLUDE\CRTDEFS.H
C:\PROGRAM FILES (X86)\MICROSOFT VISUAL STUDIO 10.0\VC\INCLUDE\SAL.H
C:\PROGRAM FILES (X86)\MICROSOFT VISUAL STUDIO 10.0\VC\INCLUDE\CODEANALYSIS\SOURCEANNOTATIONS.H
C:\PROGRAM FILES (X86)\MICROSOFT VISUAL STUDIO 10.0\VC\INCLUDE\VADEFS.H
C:\PROGRAM FILES (X86)\MICROSOFT VISUAL STUDIO 10.0\VC\INCLUDE\STDLIB.H
C:\PROGRAM FILES (X86)\MICROSOFT VISUAL STUDIO 10.0\VC\INCLUDE\LIMITS.H
C:\PROGRAM FILES (X86)\MICROSOFT VISUAL STUDIO 10.0\VC\INCLUDE\STDIO.H
C:\PROGRAM FILES (X86)\MICROSOFT VISUAL STUDIO 10.0\VC\INCLUDE\SWPRINTF.INL
C:\PROGRAM FILES (X86)\MICROSOFT VISUAL STUDIO 10.0\VC\INCLUDE\STRING.H
C:\USERS\RCHENG\DROPBOX\JHU2013FALL\COMPUTERGRAPHICS\ASSIGNMENT 1\JPEG\JPEGLIB.H
C:\USERS\RCHENG\DROPBOX\JHU2013FALL\COMPUTERGRAPHICS\ASSIGNMENT 1\JPEG\JMORECFG.H
C:\USERS\RCHENG\DROPBOX\JHU2013FALL\COMPUTERGRAPHICS\ASSIGNMENT 1\JPEG\JPEGINT.H
C:\USERS\RCHENG\DROPBOX\JHU2013FALL\COMPUTERGRAPHICS\ASSIGNMENT 1\JPEG\JERROR.H
^C:\USERS\RCHENG\DROPBOX\JHU2013FALL\COMPUTERGRAPHICS\ASSIGNMENT 1\JPEG\JCMASTER.CPP
C:\USERS\RCHENG\DROPBOX\JHU2013FALL\COMPUTERGRAPHICS\ASSIGNMENT 1\JPEG\JINCLUDE.H
C:\USERS\RCHENG\DROPBOX\JHU2013FALL\COMPUTERGRAPHICS\ASSIGNMENT 1\JPEG\JCONFIG.H
C:\PROGRAM FILES (X86)\MICROSOFT VISUAL STUDIO 10.0\VC\INCLUDE\STDDEF.H
C:\PROGRAM FILES (X86)\MICROSOFT VISUAL STUDIO 10.0\VC\INCLUDE\CRTDEFS.H
C:\PROGRAM FILES (X86)\MICROSOFT VISUAL STUDIO 10.0\VC\INCLUDE\SAL.H
C:\PROGRAM FILES (X86)\MICROSOFT VISUAL STUDIO 10.0\VC\INCLUDE\CODEANALYSIS\SOURCEANNOTATIONS.H
C:\PROGRAM FILES (X86)\MICROSOFT VISUAL STUDIO 10.0\VC\INCLUDE\VADEFS.H
C:\PROGRAM FILES (X86)\MICROSOFT VISUAL STUDIO 10.0\VC\INCLUDE\STDLIB.H
C:\PROGRAM FILES (X86)\MICROSOFT VISUAL STUDIO 10.0\VC\INCLUDE\LIMITS.H
C:\PROGRAM FILES (X86)\MICROSOFT VISUAL STUDIO 10.0\VC\INCLUDE\STDIO.H
C:\PROGRAM FILES (X86)\MICROSOFT VISUAL STUDIO 10.0\VC\INCLUDE\SWPRINTF.INL
C:\PROGRAM FILES (X86)\MICROSOFT VISUAL STUDIO 10.0\VC\INCLUDE\STRING.H
C:\USERS\RCHENG\DROPBOX\JHU2013FALL\COMPUTERGRAPHICS\ASSIGNMENT 1\JPEG\JPEGLIB.H
C:\USERS\RCHENG\DROPBOX\JHU2013FALL\COMPUTERGRAPHICS\ASSIGNMENT 1\JPEG\JMORECFG.H
C:\USERS\RCHENG\DROPBOX\JHU2013FALL\COMPUTERGRAPHICS\ASSIGNMENT 1\JPEG\JPEGINT.H
C:\USERS\RCHENG\DROPBOX\JHU2013FALL\COMPUTERGRAPHICS\ASSIGNMENT 1\JPEG\JERROR.H
^C:\USERS\RCHENG\DROPBOX\JHU2013FALL\COMPUTERGRAPHICS\ASSIGNMENT 1\JPEG\JCMARKER.CPP
C:\USERS\RCHENG\DROPBOX\JHU2013FALL\COMPUTERGRAPHICS\ASSIGNMENT 1\JPEG\JINCLUDE.H
C:\USERS\RCHENG\DROPBOX\JHU2013FALL\COMPUTERGRAPHICS\ASSIGNMENT 1\JPEG\JCONFIG.H
C:\PROGRAM FILES (X86)\MICROSOFT VISUAL STUDIO 10.0\VC\INCLUDE\STDDEF.H
C:\PROGRAM FILES (X86)\MICROSOFT VISUAL STUDIO 10.0\VC\INCLUDE\CRTDEFS.H
C:\PROGRAM FILES (X86)\MICROSOFT VISUAL STUDIO 10.0\VC\INCLUDE\SAL.H
C:\PROGRAM FILES (X86)\MICROSOFT VISUAL STUDIO 10.0\VC\INCLUDE\CODEANALYSIS\SOURCEANNOTATIONS.H
C:\PROGRAM FILES (X86)\MICROSOFT VISUAL STUDIO 10.0\VC\INCLUDE\VADEFS.H
C:\PROGRAM FILES (X86)\MICROSOFT VISUAL STUDIO 10.0\VC\INCLUDE\STDLIB.H
C:\PROGRAM FILES (X86)\MICROSOFT VISUAL STUDIO 10.0\VC\INCLUDE\LIMITS.H
C:\PROGRAM FILES (X86)\MICROSOFT VISUAL STUDIO 10.0\VC\INCLUDE\STDIO.H
C:\PROGRAM FILES (X86)\MICROSOFT VISUAL STUDIO 10.0\VC\INCLUDE\SWPRINTF.INL
C:\PROGRAM FILES (X86)\MICROSOFT VISUAL STUDIO 10.0\VC\INCLUDE\STRING.H
C:\USERS\RCHENG\DROPBOX\JHU2013FALL\COMPUTERGRAPHICS\ASSIGNMENT 1\JPEG\JPEGLIB.H
C:\USERS\RCHENG\DROPBOX\JHU2013FALL\COMPUTERGRAPHICS\ASSIGNMENT 1\JPEG\JMORECFG.H
C:\USERS\RCHENG\DROPBOX\JHU2013FALL\COMPUTERGRAPHICS\ASSIGNMENT 1\JPEG\JPEGINT.H
C:\USERS\RCHENG\DROPBOX\JHU2013FALL\COMPUTERGRAPHICS\ASSIGNMENT 1\JPEG\JERROR.H
^C:\USERS\RCHENG\DROPBOX\JHU2013FALL\COMPUTERGRAPHICS\ASSIGNMENT 1\JPEG\JCMAINCT.CPP
C:\USERS\RCHENG\DROPBOX\JHU2013FALL\COMPUTERGRAPHICS\ASSIGNMENT 1\JPEG\JINCLUDE.H
C:\USERS\RCHENG\DROPBOX\JHU2013FALL\COMPUTERGRAPHICS\ASSIGNMENT 1\JPEG\JCONFIG.H
C:\PROGRAM FILES (X86)\MICROSOFT VISUAL STUDIO 10.0\VC\INCLUDE\STDDEF.H
C:\PROGRAM FILES (X86)\MICROSOFT VISUAL STUDIO 10.0\VC\INCLUDE\CRTDEFS.H
C:\PROGRAM FILES (X86)\MICROSOFT VISUAL STUDIO 10.0\VC\INCLUDE\SAL.H
C:\PROGRAM FILES (X86)\MICROSOFT VISUAL STUDIO 10.0\VC\INCLUDE\CODEANALYSIS\SOURCEANNOTATIONS.H
C:\PROGRAM FILES (X86)\MICROSOFT VISUAL STUDIO 10.0\VC\INCLUDE\VADEFS.H
C:\PROGRAM FILES (X86)\MICROSOFT VISUAL STUDIO 10.0\VC\INCLUDE\STDLIB.H
C:\PROGRAM FILES (X86)\MICROSOFT VISUAL STUDIO 10.0\VC\INCLUDE\LIMITS.H
C:\PROGRAM FILES (X86)\MICROSOFT VISUAL STUDIO 10.0\VC\INCLUDE\STDIO.H
C:\PROGRAM FILES (X86)\MICROSOFT VISUAL STUDIO 10.0\VC\INCLUDE\SWPRINTF.INL
C:\PROGRAM FILES (X86)\MICROSOFT VISUAL STUDIO 10.0\VC\INCLUDE\STRING.H
C:\USERS\RCHENG\DROPBOX\JHU2013FALL\COMPUTERGRAPHICS\ASSIGNMENT 1\JPEG\JPEGLIB.H
C:\USERS\RCHENG\DROPBOX\JHU2013FALL\COMPUTERGRAPHICS\ASSIGNMENT 1\JPEG\JMORECFG.H
C:\USERS\RCHENG\DROPBOX\JHU2013FALL\COMPUTERGRAPHICS\ASSIGNMENT 1\JPEG\JPEGINT.H
C:\USERS\RCHENG\DROPBOX\JHU2013FALL\COMPUTERGRAPHICS\ASSIGNMENT 1\JPEG\JERROR.H
^C:\USERS\RCHENG\DROPBOX\JHU2013FALL\COMPUTERGRAPHICS\ASSIGNMENT 1\JPEG\JCINIT.CPP
C:\USERS\RCHENG\DROPBOX\JHU2013FALL\COMPUTERGRAPHICS\ASSIGNMENT 1\JPEG\JINCLUDE.H
C:\USERS\RCHENG\DROPBOX\JHU2013FALL\COMPUTERGRAPHICS\ASSIGNMENT 1\JPEG\JCONFIG.H
C:\PROGRAM FILES (X86)\MICROSOFT VISUAL STUDIO 10.0\VC\INCLUDE\STDDEF.H
C:\PROGRAM FILES (X86)\MICROSOFT VISUAL STUDIO 10.0\VC\INCLUDE\CRTDEFS.H
C:\PROGRAM FILES (X86)\MICROSOFT VISUAL STUDIO 10.0\VC\INCLUDE\SAL.H
C:\PROGRAM FILES (X86)\MICROSOFT VISUAL STUDIO 10.0\VC\INCLUDE\CODEANALYSIS\SOURCEANNOTATIONS.H
C:\PROGRAM FILES (X86)\MICROSOFT VISUAL STUDIO 10.0\VC\INCLUDE\VADEFS.H
C:\PROGRAM FILES (X86)\MICROSOFT VISUAL STUDIO 10.0\VC\INCLUDE\STDLIB.H
C:\PROGRAM FILES (X86)\MICROSOFT VISUAL STUDIO 10.0\VC\INCLUDE\LIMITS.H
C:\PROGRAM FILES (X86)\MICROSOFT VISUAL STUDIO 10.0\VC\INCLUDE\STDIO.H
C:\PROGRAM FILES (X86)\MICROSOFT VISUAL STUDIO 10.0\VC\INCLUDE\SWPRINTF.INL
C:\PROGRAM FILES (X86)\MICROSOFT VISUAL STUDIO 10.0\VC\INCLUDE\STRING.H
C:\USERS\RCHENG\DROPBOX\JHU2013FALL\COMPUTERGRAPHICS\ASSIGNMENT 1\JPEG\JPEGLIB.H
C:\USERS\RCHENG\DROPBOX\JHU2013FALL\COMPUTERGRAPHICS\ASSIGNMENT 1\JPEG\JMORECFG.H
C:\USERS\RCHENG\DROPBOX\JHU2013FALL\COMPUTERGRAPHICS\ASSIGNMENT 1\JPEG\JPEGINT.H
C:\USERS\RCHENG\DROPBOX\JHU2013FALL\COMPUTERGRAPHICS\ASSIGNMENT 1\JPEG\JERROR.H
^C:\USERS\RCHENG\DROPBOX\JHU2013FALL\COMPUTERGRAPHICS\ASSIGNMENT 1\JPEG\JCHUFF.CPP
C:\USERS\RCHENG\DROPBOX\JHU2013FALL\COMPUTERGRAPHICS\ASSIGNMENT 1\JPEG\JINCLUDE.H
C:\USERS\RCHENG\DROPBOX\JHU2013FALL\COMPUTERGRAPHICS\ASSIGNMENT 1\JPEG\JCONFIG.H
C:\PROGRAM FILES (X86)\MICROSOFT VISUAL STUDIO 10.0\VC\INCLUDE\STDDEF.H
C:\PROGRAM FILES (X86)\MICROSOFT VISUAL STUDIO 10.0\VC\INCLUDE\CRTDEFS.H
C:\PROGRAM FILES (X86)\MICROSOFT VISUAL STUDIO 10.0\VC\INCLUDE\SAL.H
C:\PROGRAM FILES (X86)\MICROSOFT VISUAL STUDIO 10.0\VC\INCLUDE\CODEANALYSIS\SOURCEANNOTATIONS.H
C:\PROGRAM FILES (X86)\MICROSOFT VISUAL STUDIO 10.0\VC\INCLUDE\VADEFS.H
C:\PROGRAM FILES (X86)\MICROSOFT VISUAL STUDIO 10.0\VC\INCLUDE\STDLIB.H
C:\PROGRAM FILES (X86)\MICROSOFT VISUAL STUDIO 10.0\VC\INCLUDE\LIMITS.H
C:\PROGRAM FILES (X86)\MICROSOFT VISUAL STUDIO 10.0\VC\INCLUDE\STDIO.H
C:\PROGRAM FILES (X86)\MICROSOFT VISUAL STUDIO 10.0\VC\INCLUDE\SWPRINTF.INL
C:\PROGRAM FILES (X86)\MICROSOFT VISUAL STUDIO 10.0\VC\INCLUDE\STRING.H
C:\USERS\RCHENG\DROPBOX\JHU2013FALL\COMPUTERGRAPHICS\ASSIGNMENT 1\JPEG\JPEGLIB.H
C:\USERS\RCHENG\DROPBOX\JHU2013FALL\COMPUTERGRAPHICS\ASSIGNMENT 1\JPEG\JMORECFG.H
C:\USERS\RCHENG\DROPBOX\JHU2013FALL\COMPUTERGRAPHICS\ASSIGNMENT 1\JPEG\JPEGINT.H
C:\USERS\RCHENG\DROPBOX\JHU2013FALL\COMPUTERGRAPHICS\ASSIGNMENT 1\JPEG\JERROR.H
C:\USERS\RCHENG\DROPBOX\JHU2013FALL\COMPUTERGRAPHICS\ASSIGNMENT 1\JPEG\JCHUFF.H
^C:\USERS\RCHENG\DROPBOX\JHU2013FALL\COMPUTERGRAPHICS\ASSIGNMENT 1\JPEG\JCDCTMGR.CPP
C:\USERS\RCHENG\DROPBOX\JHU2013FALL\COMPUTERGRAPHICS\ASSIGNMENT 1\JPEG\JINCLUDE.H
C:\USERS\RCHENG\DROPBOX\JHU2013FALL\COMPUTERGRAPHICS\ASSIGNMENT 1\JPEG\JCONFIG.H
C:\PROGRAM FILES (X86)\MICROSOFT VISUAL STUDIO 10.0\VC\INCLUDE\STDDEF.H
C:\PROGRAM FILES (X86)\MICROSOFT VISUAL STUDIO 10.0\VC\INCLUDE\CRTDEFS.H
C:\PROGRAM FILES (X86)\MICROSOFT VISUAL STUDIO 10.0\VC\INCLUDE\SAL.H
C:\PROGRAM FILES (X86)\MICROSOFT VISUAL STUDIO 10.0\VC\INCLUDE\CODEANALYSIS\SOURCEANNOTATIONS.H
C:\PROGRAM FILES (X86)\MICROSOFT VISUAL STUDIO 10.0\VC\INCLUDE\VADEFS.H
C:\PROGRAM FILES (X86)\MICROSOFT VISUAL STUDIO 10.0\VC\INCLUDE\STDLIB.H
C:\PROGRAM FILES (X86)\MICROSOFT VISUAL STUDIO 10.0\VC\INCLUDE\LIMITS.H
C:\PROGRAM FILES (X86)\MICROSOFT VISUAL STUDIO 10.0\VC\INCLUDE\STDIO.H
C:\PROGRAM FILES (X86)\MICROSOFT VISUAL STUDIO 10.0\VC\INCLUDE\SWPRINTF.INL
C:\PROGRAM FILES (X86)\MICROSOFT VISUAL STUDIO 10.0\VC\INCLUDE\STRING.H
C:\USERS\RCHENG\DROPBOX\JHU2013FALL\COMPUTERGRAPHICS\ASSIGNMENT 1\JPEG\JPEGLIB.H
C:\USERS\RCHENG\DROPBOX\JHU2013FALL\COMPUTERGRAPHICS\ASSIGNMENT 1\JPEG\JMORECFG.H
C:\USERS\RCHENG\DROPBOX\JHU2013FALL\COMPUTERGRAPHICS\ASSIGNMENT 1\JPEG\JPEGINT.H
C:\USERS\RCHENG\DROPBOX\JHU2013FALL\COMPUTERGRAPHICS\ASSIGNMENT 1\JPEG\JERROR.H
C:\USERS\RCHENG\DROPBOX\JHU2013FALL\COMPUTERGRAPHICS\ASSIGNMENT 1\JPEG\JDCT.H
^C:\USERS\RCHENG\DROPBOX\JHU2013FALL\COMPUTERGRAPHICS\ASSIGNMENT 1\JPEG\JCCOLOR.CPP
C:\USERS\RCHENG\DROPBOX\JHU2013FALL\COMPUTERGRAPHICS\ASSIGNMENT 1\JPEG\JINCLUDE.H
C:\USERS\RCHENG\DROPBOX\JHU2013FALL\COMPUTERGRAPHICS\ASSIGNMENT 1\JPEG\JCONFIG.H
C:\PROGRAM FILES (X86)\MICROSOFT VISUAL STUDIO 10.0\VC\INCLUDE\STDDEF.H
C:\PROGRAM FILES (X86)\MICROSOFT VISUAL STUDIO 10.0\VC\INCLUDE\CRTDEFS.H
C:\PROGRAM FILES (X86)\MICROSOFT VISUAL STUDIO 10.0\VC\INCLUDE\SAL.H
C:\PROGRAM FILES (X86)\MICROSOFT VISUAL STUDIO 10.0\VC\INCLUDE\CODEANALYSIS\SOURCEANNOTATIONS.H
C:\PROGRAM FILES (X86)\MICROSOFT VISUAL STUDIO 10.0\VC\INCLUDE\VADEFS.H
C:\PROGRAM FILES (X86)\MICROSOFT VISUAL STUDIO 10.0\VC\INCLUDE\STDLIB.H
C:\PROGRAM FILES (X86)\MICROSOFT VISUAL STUDIO 10.0\VC\INCLUDE\LIMITS.H
C:\PROGRAM FILES (X86)\MICROSOFT VISUAL STUDIO 10.0\VC\INCLUDE\STDIO.H
C:\PROGRAM FILES (X86)\MICROSOFT VISUAL STUDIO 10.0\VC\INCLUDE\SWPRINTF.INL
C:\PROGRAM FILES (X86)\MICROSOFT VISUAL STUDIO 10.0\VC\INCLUDE\STRING.H
C:\USERS\RCHENG\DROPBOX\JHU2013FALL\COMPUTERGRAPHICS\ASSIGNMENT 1\JPEG\JPEGLIB.H
C:\USERS\RCHENG\DROPBOX\JHU2013FALL\COMPUTERGRAPHICS\ASSIGNMENT 1\JPEG\JMORECFG.H
C:\USERS\RCHENG\DROPBOX\JHU2013FALL\COMPUTERGRAPHICS\ASSIGNMENT 1\JPEG\JPEGINT.H
C:\USERS\RCHENG\DROPBOX\JHU2013FALL\COMPUTERGRAPHICS\ASSIGNMENT 1\JPEG\JERROR.H
^C:\USERS\RCHENG\DROPBOX\JHU2013FALL\COMPUTERGRAPHICS\ASSIGNMENT 1\JPEG\JCCOEFCT.CPP
C:\USERS\RCHENG\DROPBOX\JHU2013FALL\COMPUTERGRAPHICS\ASSIGNMENT 1\JPEG\JINCLUDE.H
C:\USERS\RCHENG\DROPBOX\JHU2013FALL\COMPUTERGRAPHICS\ASSIGNMENT 1\JPEG\JCONFIG.H
C:\PROGRAM FILES (X86)\MICROSOFT VISUAL STUDIO 10.0\VC\INCLUDE\STDDEF.H
C:\PROGRAM FILES (X86)\MICROSOFT VISUAL STUDIO 10.0\VC\INCLUDE\CRTDEFS.H
C:\PROGRAM FILES (X86)\MICROSOFT VISUAL STUDIO 10.0\VC\INCLUDE\SAL.H
C:\PROGRAM FILES (X86)\MICROSOFT VISUAL STUDIO 10.0\VC\INCLUDE\CODEANALYSIS\SOURCEANNOTATIONS.H
C:\PROGRAM FILES (X86)\MICROSOFT VISUAL STUDIO 10.0\VC\INCLUDE\VADEFS.H
C:\PROGRAM FILES (X86)\MICROSOFT VISUAL STUDIO 10.0\VC\INCLUDE\STDLIB.H
C:\PROGRAM FILES (X86)\MICROSOFT VISUAL STUDIO 10.0\VC\INCLUDE\LIMITS.H
C:\PROGRAM FILES (X86)\MICROSOFT VISUAL STUDIO 10.0\VC\INCLUDE\STDIO.H
C:\PROGRAM FILES (X86)\MICROSOFT VISUAL STUDIO 10.0\VC\INCLUDE\SWPRINTF.INL
C:\PROGRAM FILES (X86)\MICROSOFT VISUAL STUDIO 10.0\VC\INCLUDE\STRING.H
C:\USERS\RCHENG\DROPBOX\JHU2013FALL\COMPUTERGRAPHICS\ASSIGNMENT 1\JPEG\JPEGLIB.H
C:\USERS\RCHENG\DROPBOX\JHU2013FALL\COMPUTERGRAPHICS\ASSIGNMENT 1\JPEG\JMORECFG.H
C:\USERS\RCHENG\DROPBOX\JHU2013FALL\COMPUTERGRAPHICS\ASSIGNMENT 1\JPEG\JPEGINT.H
C:\USERS\RCHENG\DROPBOX\JHU2013FALL\COMPUTERGRAPHICS\ASSIGNMENT 1\JPEG\JERROR.H
^C:\USERS\RCHENG\DROPBOX\JHU2013FALL\COMPUTERGRAPHICS\ASSIGNMENT 1\JPEG\JCAPISTD.CPP
C:\USERS\RCHENG\DROPBOX\JHU2013FALL\COMPUTERGRAPHICS\ASSIGNMENT 1\JPEG\JINCLUDE.H
C:\USERS\RCHENG\DROPBOX\JHU2013FALL\COMPUTERGRAPHICS\ASSIGNMENT 1\JPEG\JCONFIG.H
C:\PROGRAM FILES (X86)\MICROSOFT VISUAL STUDIO 10.0\VC\INCLUDE\STDDEF.H
C:\PROGRAM FILES (X86)\MICROSOFT VISUAL STUDIO 10.0\VC\INCLUDE\CRTDEFS.H
C:\PROGRAM FILES (X86)\MICROSOFT VISUAL STUDIO 10.0\VC\INCLUDE\SAL.H
C:\PROGRAM FILES (X86)\MICROSOFT VISUAL STUDIO 10.0\VC\INCLUDE\CODEANALYSIS\SOURCEANNOTATIONS.H
C:\PROGRAM FILES (X86)\MICROSOFT VISUAL STUDIO 10.0\VC\INCLUDE\VADEFS.H
C:\PROGRAM FILES (X86)\MICROSOFT VISUAL STUDIO 10.0\VC\INCLUDE\STDLIB.H
C:\PROGRAM FILES (X86)\MICROSOFT VISUAL STUDIO 10.0\VC\INCLUDE\LIMITS.H
C:\PROGRAM FILES (X86)\MICROSOFT VISUAL STUDIO 10.0\VC\INCLUDE\STDIO.H
C:\PROGRAM FILES (X86)\MICROSOFT VISUAL STUDIO 10.0\VC\INCLUDE\SWPRINTF.INL
C:\PROGRAM FILES (X86)\MICROSOFT VISUAL STUDIO 10.0\VC\INCLUDE\STRING.H
C:\USERS\RCHENG\DROPBOX\JHU2013FALL\COMPUTERGRAPHICS\ASSIGNMENT 1\JPEG\JPEGLIB.H
C:\USERS\RCHENG\DROPBOX\JHU2013FALL\COMPUTERGRAPHICS\ASSIGNMENT 1\JPEG\JMORECFG.H
C:\USERS\RCHENG\DROPBOX\JHU2013FALL\COMPUTERGRAPHICS\ASSIGNMENT 1\JPEG\JPEGINT.H
C:\USERS\RCHENG\DROPBOX\JHU2013FALL\COMPUTERGRAPHICS\ASSIGNMENT 1\JPEG\JERROR.H
^C:\USERS\RCHENG\DROPBOX\JHU2013FALL\COMPUTERGRAPHICS\ASSIGNMENT 1\JPEG\JCAPIMIN.CPP
C:\USERS\RCHENG\DROPBOX\JHU2013FALL\COMPUTERGRAPHICS\ASSIGNMENT 1\JPEG\JINCLUDE.H
C:\USERS\RCHENG\DROPBOX\JHU2013FALL\COMPUTERGRAPHICS\ASSIGNMENT 1\JPEG\JCONFIG.H
C:\PROGRAM FILES (X86)\MICROSOFT VISUAL STUDIO 10.0\VC\INCLUDE\STDDEF.H
C:\PROGRAM FILES (X86)\MICROSOFT VISUAL STUDIO 10.0\VC\INCLUDE\CRTDEFS.H
C:\PROGRAM FILES (X86)\MICROSOFT VISUAL STUDIO 10.0\VC\INCLUDE\SAL.H
C:\PROGRAM FILES (X86)\MICROSOFT VISUAL STUDIO 10.0\VC\INCLUDE\CODEANALYSIS\SOURCEANNOTATIONS.H
C:\PROGRAM FILES (X86)\MICROSOFT VISUAL STUDIO 10.0\VC\INCLUDE\VADEFS.H
C:\PROGRAM FILES (X86)\MICROSOFT VISUAL STUDIO 10.0\VC\INCLUDE\STDLIB.H
C:\PROGRAM FILES (X86)\MICROSOFT VISUAL STUDIO 10.0\VC\INCLUDE\LIMITS.H
C:\PROGRAM FILES (X86)\MICROSOFT VISUAL STUDIO 10.0\VC\INCLUDE\STDIO.H
C:\PROGRAM FILES (X86)\MICROSOFT VISUAL STUDIO 10.0\VC\INCLUDE\SWPRINTF.INL
C:\PROGRAM FILES (X86)\MICROSOFT VISUAL STUDIO 10.0\VC\INCLUDE\STRING.H
C:\USERS\RCHENG\DROPBOX\JHU2013FALL\COMPUTERGRAPHICS\ASSIGNMENT 1\JPEG\JPEGLIB.H
C:\USERS\RCHENG\DROPBOX\JHU2013FALL\COMPUTERGRAPHICS\ASSIGNMENT 1\JPEG\JMORECFG.H
C:\USERS\RCHENG\DROPBOX\JHU2013FALL\COMPUTERGRAPHICS\ASSIGNMENT 1\JPEG\JPEGINT.H
C:\USERS\RCHENG\DROPBOX\JHU2013FALL\COMPUTERGRAPHICS\ASSIGNMENT 1\JPEG\JERROR.H
^C:\USERS\RCHENG\DROPBOX\JHU2013FALL\COMPUTERGRAPHICS\ASSIGNMENT 1\JPEG\CKCONFIG.CPP
C:\PROGRAM FILES (X86)\MICROSOFT VISUAL STUDIO 10.0\VC\INCLUDE\STDDEF.H
C:\PROGRAM FILES (X86)\MICROSOFT VISUAL STUDIO 10.0\VC\INCLUDE\CRTDEFS.H
C:\PROGRAM FILES (X86)\MICROSOFT VISUAL STUDIO 10.0\VC\INCLUDE\SAL.H
C:\PROGRAM FILES (X86)\MICROSOFT VISUAL STUDIO 10.0\VC\INCLUDE\CODEANALYSIS\SOURCEANNOTATIONS.H
C:\PROGRAM FILES (X86)\MICROSOFT VISUAL STUDIO 10.0\VC\INCLUDE\VADEFS.H
C:\PROGRAM FILES (X86)\MICROSOFT VISUAL STUDIO 10.0\VC\INCLUDE\STDLIB.H
C:\PROGRAM FILES (X86)\MICROSOFT VISUAL STUDIO 10.0\VC\INCLUDE\LIMITS.H
C:\PROGRAM FILES (X86)\MICROSOFT VISUAL STUDIO 10.0\VC\INCLUDE\STDIO.H
C:\PROGRAM FILES (X86)\MICROSOFT VISUAL STUDIO 10.0\VC\INCLUDE\SWPRINTF.INL
C:\PROGRAM FILES (X86)\MICROSOFT VISUAL STUDIO 10.0\VC\INCLUDE\STRING.H
