﻿Build started 2013/9/30 20:46:20.
     1>Project "C:\Users\RCheng\Dropbox\JHU2013Fall\ComputerGraphics\Assignment 1\Image.vcxproj" on node 2 (build target(s)).
     1>InitializeBuildStatus:
         Creating ".\IMAGE_OUT\Image.unsuccessfulbuild" because "AlwaysCreate" was specified.
       ClCompile:
         c:\Program Files (x86)\Microsoft Visual Studio 10.0\VC\bin\CL.exe /c /I. /ZI /nologo /W3 /WX- /Od /Oy- /D WIN32 /D _DEBUG /D _CONSOLE /D _VC80_UPGRADE=0x0600 /D _MBCS /Gm /EHsc /RTC1 /MTd /GS /fp:precise /Zc:wchar_t /Zc:forScope /Fo".\IMAGE_OUT/" /Fd".\IMAGE_OUT/vc100.pdb" /Gd /TP /analyze- /errorReport:prompt Image\image.todo.cpp
         image.todo.cpp
     1>c:\users\rcheng\dropbox\jhu2013fall\computergraphics\assignment 1\image\image.todo.cpp(4): warning C4005: 'PI' : macro redefinition
                 c:\users\rcheng\dropbox\jhu2013fall\computergraphics\assignment 1\image\image.h(8) : see previous definition of 'PI'
     1>c:\users\rcheng\dropbox\jhu2013fall\computergraphics\assignment 1\image\image.todo.cpp(74): warning C4244: '=' : conversion from 'double' to 'unsigned char', possible loss of data
     1>c:\users\rcheng\dropbox\jhu2013fall\computergraphics\assignment 1\image\image.todo.cpp(79): warning C4244: '=' : conversion from 'double' to 'unsigned char', possible loss of data
     1>c:\users\rcheng\dropbox\jhu2013fall\computergraphics\assignment 1\image\image.todo.cpp(84): warning C4244: '=' : conversion from 'double' to 'unsigned char', possible loss of data
     1>c:\users\rcheng\dropbox\jhu2013fall\computergraphics\assignment 1\image\image.todo.cpp(115): warning C4244: '=' : conversion from 'double' to 'unsigned char', possible loss of data
     1>c:\users\rcheng\dropbox\jhu2013fall\computergraphics\assignment 1\image\image.todo.cpp(116): warning C4244: '=' : conversion from 'double' to 'unsigned char', possible loss of data
     1>c:\users\rcheng\dropbox\jhu2013fall\computergraphics\assignment 1\image\image.todo.cpp(117): warning C4244: '=' : conversion from 'double' to 'unsigned char', possible loss of data
     1>c:\users\rcheng\dropbox\jhu2013fall\computergraphics\assignment 1\image\image.todo.cpp(166): warning C4244: '=' : conversion from 'double' to 'unsigned char', possible loss of data
     1>c:\users\rcheng\dropbox\jhu2013fall\computergraphics\assignment 1\image\image.todo.cpp(173): warning C4244: '=' : conversion from 'double' to 'unsigned char', possible loss of data
     1>c:\users\rcheng\dropbox\jhu2013fall\computergraphics\assignment 1\image\image.todo.cpp(180): warning C4244: '=' : conversion from 'double' to 'unsigned char', possible loss of data
     1>c:\users\rcheng\dropbox\jhu2013fall\computergraphics\assignment 1\image\image.todo.cpp(223): warning C4244: '=' : conversion from 'double' to 'unsigned char', possible loss of data
     1>c:\users\rcheng\dropbox\jhu2013fall\computergraphics\assignment 1\image\image.todo.cpp(230): warning C4244: '=' : conversion from 'double' to 'unsigned char', possible loss of data
     1>c:\users\rcheng\dropbox\jhu2013fall\computergraphics\assignment 1\image\image.todo.cpp(237): warning C4244: '=' : conversion from 'double' to 'unsigned char', possible loss of data
     1>c:\users\rcheng\dropbox\jhu2013fall\computergraphics\assignment 1\image\image.todo.cpp(268): warning C4244: 'initializing' : conversion from 'double' to 'int', possible loss of data
     1>c:\users\rcheng\dropbox\jhu2013fall\computergraphics\assignment 1\image\image.todo.cpp(291): warning C4244: '=' : conversion from 'double' to 'unsigned char', possible loss of data
     1>c:\users\rcheng\dropbox\jhu2013fall\computergraphics\assignment 1\image\image.todo.cpp(292): warning C4244: '=' : conversion from 'double' to 'unsigned char', possible loss of data
     1>c:\users\rcheng\dropbox\jhu2013fall\computergraphics\assignment 1\image\image.todo.cpp(293): warning C4244: '=' : conversion from 'double' to 'unsigned char', possible loss of data
     1>c:\users\rcheng\dropbox\jhu2013fall\computergraphics\assignment 1\image\image.todo.cpp(326): warning C4244: 'initializing' : conversion from 'double' to 'int', possible loss of data
     1>c:\users\rcheng\dropbox\jhu2013fall\computergraphics\assignment 1\image\image.todo.cpp(346): warning C4244: 'initializing' : conversion from 'double' to 'int', possible loss of data
     1>c:\users\rcheng\dropbox\jhu2013fall\computergraphics\assignment 1\image\image.todo.cpp(378): warning C4244: '=' : conversion from 'double' to 'unsigned char', possible loss of data
     1>c:\users\rcheng\dropbox\jhu2013fall\computergraphics\assignment 1\image\image.todo.cpp(379): warning C4244: '=' : conversion from 'double' to 'unsigned char', possible loss of data
     1>c:\users\rcheng\dropbox\jhu2013fall\computergraphics\assignment 1\image\image.todo.cpp(380): warning C4244: '=' : conversion from 'double' to 'unsigned char', possible loss of data
     1>c:\users\rcheng\dropbox\jhu2013fall\computergraphics\assignment 1\image\image.todo.cpp(417): warning C4244: 'initializing' : conversion from 'double' to 'int', possible loss of data
     1>c:\users\rcheng\dropbox\jhu2013fall\computergraphics\assignment 1\image\image.todo.cpp(477): warning C4244: '=' : conversion from 'double' to 'unsigned char', possible loss of data
     1>c:\users\rcheng\dropbox\jhu2013fall\computergraphics\assignment 1\image\image.todo.cpp(485): warning C4244: '=' : conversion from 'double' to 'unsigned char', possible loss of data
     1>c:\users\rcheng\dropbox\jhu2013fall\computergraphics\assignment 1\image\image.todo.cpp(492): warning C4244: '=' : conversion from 'double' to 'unsigned char', possible loss of data
     1>c:\users\rcheng\dropbox\jhu2013fall\computergraphics\assignment 1\image\image.todo.cpp(517): warning C4244: 'initializing' : conversion from 'double' to 'int', possible loss of data
     1>c:\users\rcheng\dropbox\jhu2013fall\computergraphics\assignment 1\image\image.todo.cpp(547): warning C4244: '=' : conversion from 'double' to 'unsigned char', possible loss of data
     1>c:\users\rcheng\dropbox\jhu2013fall\computergraphics\assignment 1\image\image.todo.cpp(548): warning C4244: '=' : conversion from 'double' to 'unsigned char', possible loss of data
     1>c:\users\rcheng\dropbox\jhu2013fall\computergraphics\assignment 1\image\image.todo.cpp(549): warning C4244: '=' : conversion from 'double' to 'unsigned char', possible loss of data
     1>c:\users\rcheng\dropbox\jhu2013fall\computergraphics\assignment 1\image\image.todo.cpp(555): warning C4244: '=' : conversion from 'double' to 'unsigned char', possible loss of data
     1>c:\users\rcheng\dropbox\jhu2013fall\computergraphics\assignment 1\image\image.todo.cpp(556): warning C4244: '=' : conversion from 'double' to 'unsigned char', possible loss of data
     1>c:\users\rcheng\dropbox\jhu2013fall\computergraphics\assignment 1\image\image.todo.cpp(557): warning C4244: '=' : conversion from 'double' to 'unsigned char', possible loss of data
     1>c:\users\rcheng\dropbox\jhu2013fall\computergraphics\assignment 1\image\image.todo.cpp(562): warning C4244: '=' : conversion from 'double' to 'unsigned char', possible loss of data
     1>c:\users\rcheng\dropbox\jhu2013fall\computergraphics\assignment 1\image\image.todo.cpp(563): warning C4244: '=' : conversion from 'double' to 'unsigned char', possible loss of data
     1>c:\users\rcheng\dropbox\jhu2013fall\computergraphics\assignment 1\image\image.todo.cpp(564): warning C4244: '=' : conversion from 'double' to 'unsigned char', possible loss of data
     1>c:\users\rcheng\dropbox\jhu2013fall\computergraphics\assignment 1\image\image.todo.cpp(569): warning C4244: '=' : conversion from 'double' to 'unsigned char', possible loss of data
     1>c:\users\rcheng\dropbox\jhu2013fall\computergraphics\assignment 1\image\image.todo.cpp(570): warning C4244: '=' : conversion from 'double' to 'unsigned char', possible loss of data
     1>c:\users\rcheng\dropbox\jhu2013fall\computergraphics\assignment 1\image\image.todo.cpp(571): warning C4244: '=' : conversion from 'double' to 'unsigned char', possible loss of data
     1>c:\users\rcheng\dropbox\jhu2013fall\computergraphics\assignment 1\image\image.todo.cpp(581): warning C4244: '=' : conversion from 'double' to 'unsigned char', possible loss of data
     1>c:\users\rcheng\dropbox\jhu2013fall\computergraphics\assignment 1\image\image.todo.cpp(588): warning C4244: '=' : conversion from 'double' to 'unsigned char', possible loss of data
     1>c:\users\rcheng\dropbox\jhu2013fall\computergraphics\assignment 1\image\image.todo.cpp(595): warning C4244: '=' : conversion from 'double' to 'unsigned char', possible loss of data
     1>c:\users\rcheng\dropbox\jhu2013fall\computergraphics\assignment 1\image\image.todo.cpp(746): warning C4244: '=' : conversion from 'const float' to 'int', possible loss of data
     1>c:\users\rcheng\dropbox\jhu2013fall\computergraphics\assignment 1\image\image.todo.cpp(747): warning C4244: '=' : conversion from 'const float' to 'int', possible loss of data
     1>c:\users\rcheng\dropbox\jhu2013fall\computergraphics\assignment 1\image\image.todo.cpp(755): warning C4244: 'argument' : conversion from 'double' to 'const float', possible loss of data
     1>c:\users\rcheng\dropbox\jhu2013fall\computergraphics\assignment 1\image\image.todo.cpp(755): warning C4244: 'argument' : conversion from 'double' to 'const float', possible loss of data
     1>c:\users\rcheng\dropbox\jhu2013fall\computergraphics\assignment 1\image\image.todo.cpp(772): warning C4244: '=' : conversion from 'const float' to 'int', possible loss of data
     1>c:\users\rcheng\dropbox\jhu2013fall\computergraphics\assignment 1\image\image.todo.cpp(773): warning C4244: '=' : conversion from 'const float' to 'int', possible loss of data
     1>c:\users\rcheng\dropbox\jhu2013fall\computergraphics\assignment 1\image\image.todo.cpp(781): warning C4244: 'argument' : conversion from 'double' to 'const float', possible loss of data
     1>c:\users\rcheng\dropbox\jhu2013fall\computergraphics\assignment 1\image\image.todo.cpp(781): warning C4244: 'argument' : conversion from 'double' to 'const float', possible loss of data
     1>c:\users\rcheng\dropbox\jhu2013fall\computergraphics\assignment 1\image\image.todo.cpp(799): warning C4244: '=' : conversion from 'const float' to 'int', possible loss of data
     1>c:\users\rcheng\dropbox\jhu2013fall\computergraphics\assignment 1\image\image.todo.cpp(800): warning C4244: '=' : conversion from 'const float' to 'int', possible loss of data
     1>c:\users\rcheng\dropbox\jhu2013fall\computergraphics\assignment 1\image\image.todo.cpp(808): warning C4305: 'argument' : truncation from 'double' to 'const float'
     1>c:\users\rcheng\dropbox\jhu2013fall\computergraphics\assignment 1\image\image.todo.cpp(808): warning C4305: 'argument' : truncation from 'double' to 'const float'
     1>c:\users\rcheng\dropbox\jhu2013fall\computergraphics\assignment 1\image\image.todo.cpp(808): warning C4244: 'argument' : conversion from 'double' to 'const float', possible loss of data
     1>c:\users\rcheng\dropbox\jhu2013fall\computergraphics\assignment 1\image\image.todo.cpp(808): warning C4244: 'argument' : conversion from 'double' to 'const float', possible loss of data
     1>c:\users\rcheng\dropbox\jhu2013fall\computergraphics\assignment 1\image\image.todo.cpp(852): warning C4244: 'initializing' : conversion from 'double' to 'int', possible loss of data
     1>c:\users\rcheng\dropbox\jhu2013fall\computergraphics\assignment 1\image\image.todo.cpp(853): warning C4244: 'initializing' : conversion from 'double' to 'int', possible loss of data
     1>c:\users\rcheng\dropbox\jhu2013fall\computergraphics\assignment 1\image\image.todo.cpp(868): warning C4244: 'initializing' : conversion from 'double' to 'int', possible loss of data
     1>c:\users\rcheng\dropbox\jhu2013fall\computergraphics\assignment 1\image\image.todo.cpp(869): warning C4244: 'initializing' : conversion from 'double' to 'int', possible loss of data
     1>c:\users\rcheng\dropbox\jhu2013fall\computergraphics\assignment 1\image\image.todo.cpp(880): warning C4244: 'argument' : conversion from 'int' to 'const float', possible loss of data
     1>c:\users\rcheng\dropbox\jhu2013fall\computergraphics\assignment 1\image\image.todo.cpp(880): warning C4244: 'argument' : conversion from 'int' to 'const float', possible loss of data
     1>c:\users\rcheng\dropbox\jhu2013fall\computergraphics\assignment 1\image\image.todo.cpp(827): warning C4101: 'ix' : unreferenced local variable
     1>c:\users\rcheng\dropbox\jhu2013fall\computergraphics\assignment 1\image\image.todo.cpp(827): warning C4101: 'iy' : unreferenced local variable
     1>c:\users\rcheng\dropbox\jhu2013fall\computergraphics\assignment 1\image\image.todo.cpp(920): warning C4244: 'initializing' : conversion from 'double' to 'int', possible loss of data
     1>c:\users\rcheng\dropbox\jhu2013fall\computergraphics\assignment 1\image\image.todo.cpp(921): warning C4244: 'initializing' : conversion from 'double' to 'int', possible loss of data
     1>c:\users\rcheng\dropbox\jhu2013fall\computergraphics\assignment 1\image\image.todo.cpp(936): warning C4244: 'initializing' : conversion from 'double' to 'int', possible loss of data
     1>c:\users\rcheng\dropbox\jhu2013fall\computergraphics\assignment 1\image\image.todo.cpp(937): warning C4244: 'initializing' : conversion from 'double' to 'int', possible loss of data
     1>c:\users\rcheng\dropbox\jhu2013fall\computergraphics\assignment 1\image\image.todo.cpp(948): warning C4244: 'argument' : conversion from 'int' to 'const float', possible loss of data
     1>c:\users\rcheng\dropbox\jhu2013fall\computergraphics\assignment 1\image\image.todo.cpp(948): warning C4244: 'argument' : conversion from 'int' to 'const float', possible loss of data
     1>c:\users\rcheng\dropbox\jhu2013fall\computergraphics\assignment 1\image\image.todo.cpp(895): warning C4101: 'ix' : unreferenced local variable
     1>c:\users\rcheng\dropbox\jhu2013fall\computergraphics\assignment 1\image\image.todo.cpp(895): warning C4101: 'iy' : unreferenced local variable
     1>c:\users\rcheng\dropbox\jhu2013fall\computergraphics\assignment 1\image\image.todo.cpp(988): warning C4244: 'initializing' : conversion from 'double' to 'int', possible loss of data
     1>c:\users\rcheng\dropbox\jhu2013fall\computergraphics\assignment 1\image\image.todo.cpp(989): warning C4244: 'initializing' : conversion from 'double' to 'int', possible loss of data
     1>c:\users\rcheng\dropbox\jhu2013fall\computergraphics\assignment 1\image\image.todo.cpp(1004): warning C4244: 'initializing' : conversion from 'double' to 'int', possible loss of data
     1>c:\users\rcheng\dropbox\jhu2013fall\computergraphics\assignment 1\image\image.todo.cpp(1005): warning C4244: 'initializing' : conversion from 'double' to 'int', possible loss of data
     1>c:\users\rcheng\dropbox\jhu2013fall\computergraphics\assignment 1\image\image.todo.cpp(1016): warning C4305: 'argument' : truncation from 'double' to 'const float'
     1>c:\users\rcheng\dropbox\jhu2013fall\computergraphics\assignment 1\image\image.todo.cpp(1016): warning C4305: 'argument' : truncation from 'double' to 'const float'
     1>c:\users\rcheng\dropbox\jhu2013fall\computergraphics\assignment 1\image\image.todo.cpp(1016): warning C4244: 'argument' : conversion from 'int' to 'const float', possible loss of data
     1>c:\users\rcheng\dropbox\jhu2013fall\computergraphics\assignment 1\image\image.todo.cpp(1016): warning C4244: 'argument' : conversion from 'int' to 'const float', possible loss of data
     1>c:\users\rcheng\dropbox\jhu2013fall\computergraphics\assignment 1\image\image.todo.cpp(963): warning C4101: 'ix' : unreferenced local variable
     1>c:\users\rcheng\dropbox\jhu2013fall\computergraphics\assignment 1\image\image.todo.cpp(963): warning C4101: 'iy' : unreferenced local variable
     1>c:\users\rcheng\dropbox\jhu2013fall\computergraphics\assignment 1\image\image.todo.cpp(1062): warning C4244: '=' : conversion from 'double' to 'unsigned char', possible loss of data
     1>c:\users\rcheng\dropbox\jhu2013fall\computergraphics\assignment 1\image\image.todo.cpp(1063): warning C4244: '=' : conversion from 'double' to 'unsigned char', possible loss of data
     1>c:\users\rcheng\dropbox\jhu2013fall\computergraphics\assignment 1\image\image.todo.cpp(1064): warning C4244: '=' : conversion from 'double' to 'unsigned char', possible loss of data
     1>c:\users\rcheng\dropbox\jhu2013fall\computergraphics\assignment 1\image\image.todo.cpp(1083): warning C4244: '=' : conversion from 'double' to 'unsigned char', possible loss of data
     1>c:\users\rcheng\dropbox\jhu2013fall\computergraphics\assignment 1\image\image.todo.cpp(1084): warning C4244: '=' : conversion from 'double' to 'unsigned char', possible loss of data
     1>c:\users\rcheng\dropbox\jhu2013fall\computergraphics\assignment 1\image\image.todo.cpp(1085): warning C4244: '=' : conversion from 'double' to 'unsigned char', possible loss of data
     1>c:\users\rcheng\dropbox\jhu2013fall\computergraphics\assignment 1\image\image.todo.cpp(1120): warning C4244: '=' : conversion from 'int' to 'float', possible loss of data
     1>c:\users\rcheng\dropbox\jhu2013fall\computergraphics\assignment 1\image\image.todo.cpp(1125): warning C4244: '=' : conversion from 'int' to 'float', possible loss of data
     1>c:\users\rcheng\dropbox\jhu2013fall\computergraphics\assignment 1\image\image.todo.cpp(1131): warning C4305: 'argument' : truncation from 'double' to 'const float'
     1>c:\users\rcheng\dropbox\jhu2013fall\computergraphics\assignment 1\image\image.todo.cpp(1131): warning C4305: 'argument' : truncation from 'double' to 'const float'
     1>c:\users\rcheng\dropbox\jhu2013fall\computergraphics\assignment 1\image\image.todo.cpp(1145): warning C4244: 'initializing' : conversion from 'double' to 'float', possible loss of data
     1>c:\users\rcheng\dropbox\jhu2013fall\computergraphics\assignment 1\image\image.todo.cpp(1146): warning C4244: 'initializing' : conversion from 'double' to 'float', possible loss of data
     1>c:\users\rcheng\dropbox\jhu2013fall\computergraphics\assignment 1\image\image.todo.cpp(1155): warning C4305: 'initializing' : truncation from 'double' to 'float'
     1>c:\users\rcheng\dropbox\jhu2013fall\computergraphics\assignment 1\image\image.todo.cpp(1160): warning C4804: '<' : unsafe use of type 'bool' in operation
     1>c:\users\rcheng\dropbox\jhu2013fall\computergraphics\assignment 1\image\image.todo.cpp(1160): warning C4804: '<' : unsafe use of type 'bool' in operation
     1>c:\users\rcheng\dropbox\jhu2013fall\computergraphics\assignment 1\image\image.todo.cpp(1171): warning C4244: '=' : conversion from 'int' to 'float', possible loss of data
     1>c:\users\rcheng\dropbox\jhu2013fall\computergraphics\assignment 1\image\image.todo.cpp(1176): warning C4244: '=' : conversion from 'int' to 'float', possible loss of data
     1>c:\users\rcheng\dropbox\jhu2013fall\computergraphics\assignment 1\image\image.todo.cpp(1179): warning C4305: 'argument' : truncation from 'double' to 'const float'
     1>c:\users\rcheng\dropbox\jhu2013fall\computergraphics\assignment 1\image\image.todo.cpp(1179): warning C4305: 'argument' : truncation from 'double' to 'const float'
     1>c:\users\rcheng\dropbox\jhu2013fall\computergraphics\assignment 1\image\image.todo.cpp(1181): warning C4305: 'argument' : truncation from 'double' to 'const float'
     1>c:\users\rcheng\dropbox\jhu2013fall\computergraphics\assignment 1\image\image.todo.cpp(1181): warning C4305: 'argument' : truncation from 'double' to 'const float'
     1>c:\users\rcheng\dropbox\jhu2013fall\computergraphics\assignment 1\image\image.todo.cpp(1181): warning C4244: 'argument' : conversion from 'int' to 'const float', possible loss of data
     1>c:\users\rcheng\dropbox\jhu2013fall\computergraphics\assignment 1\image\image.todo.cpp(1181): warning C4244: 'argument' : conversion from 'int' to 'const float', possible loss of data
     1>c:\users\rcheng\dropbox\jhu2013fall\computergraphics\assignment 1\image\image.todo.cpp(1243): warning C4244: 'argument' : conversion from 'const float' to 'const int', possible loss of data
     1>c:\users\rcheng\dropbox\jhu2013fall\computergraphics\assignment 1\image\image.todo.cpp(1243): warning C4244: 'argument' : conversion from 'const float' to 'const int', possible loss of data
     1>c:\users\rcheng\dropbox\jhu2013fall\computergraphics\assignment 1\image\image.todo.cpp(1264): warning C4244: 'argument' : conversion from 'double' to 'const int', possible loss of data
     1>c:\users\rcheng\dropbox\jhu2013fall\computergraphics\assignment 1\image\image.todo.cpp(1264): warning C4244: 'argument' : conversion from 'double' to 'const int', possible loss of data
     1>c:\users\rcheng\dropbox\jhu2013fall\computergraphics\assignment 1\image\image.todo.cpp(1264): warning C4244: 'argument' : conversion from 'double' to 'const int', possible loss of data
     1>c:\users\rcheng\dropbox\jhu2013fall\computergraphics\assignment 1\image\image.todo.cpp(1264): warning C4244: 'argument' : conversion from 'double' to 'const int', possible loss of data
     1>c:\users\rcheng\dropbox\jhu2013fall\computergraphics\assignment 1\image\image.todo.cpp(1265): warning C4244: 'argument' : conversion from 'double' to 'const int', possible loss of data
     1>c:\users\rcheng\dropbox\jhu2013fall\computergraphics\assignment 1\image\image.todo.cpp(1265): warning C4244: 'argument' : conversion from 'double' to 'const int', possible loss of data
     1>c:\users\rcheng\dropbox\jhu2013fall\computergraphics\assignment 1\image\image.todo.cpp(1265): warning C4244: 'argument' : conversion from 'double' to 'const int', possible loss of data
     1>c:\users\rcheng\dropbox\jhu2013fall\computergraphics\assignment 1\image\image.todo.cpp(1265): warning C4244: 'argument' : conversion from 'double' to 'const int', possible loss of data
     1>c:\users\rcheng\dropbox\jhu2013fall\computergraphics\assignment 1\image\image.todo.cpp(1266): warning C4244: 'argument' : conversion from 'double' to 'const int', possible loss of data
     1>c:\users\rcheng\dropbox\jhu2013fall\computergraphics\assignment 1\image\image.todo.cpp(1266): warning C4244: 'argument' : conversion from 'double' to 'const int', possible loss of data
     1>c:\users\rcheng\dropbox\jhu2013fall\computergraphics\assignment 1\image\image.todo.cpp(1266): warning C4244: 'argument' : conversion from 'double' to 'const int', possible loss of data
     1>c:\users\rcheng\dropbox\jhu2013fall\computergraphics\assignment 1\image\image.todo.cpp(1266): warning C4244: 'argument' : conversion from 'double' to 'const int', possible loss of data
     1>c:\users\rcheng\dropbox\jhu2013fall\computergraphics\assignment 1\image\image.todo.cpp(1280): warning C4244: 'argument' : conversion from 'const float' to 'const int', possible loss of data
     1>c:\users\rcheng\dropbox\jhu2013fall\computergraphics\assignment 1\image\image.todo.cpp(1280): warning C4244: 'argument' : conversion from 'const float' to 'const int', possible loss of data
       ManifestResourceCompile:
         All outputs are up-to-date.
     1>C:\Program Files (x86)\MSBuild\Microsoft.Cpp\v4.0\Microsoft.CppBuild.targets(990,5): warning MSB8012: TargetPath(C:\Users\RCheng\Dropbox\JHU2013Fall\ComputerGraphics\Assignment 1\.\IMAGE_OUT\Image.exe) does not match the Linker's OutputFile property value (C:\Users\RCheng\Dropbox\JHU2013Fall\ComputerGraphics\Assignment 1\Assignment1.exe). This may cause your project to build incorrectly. To correct this, please make sure that $(OutDir), $(TargetName) and $(TargetExt) property values match the value specified in %(Link.OutputFile).
     1>C:\Program Files (x86)\MSBuild\Microsoft.Cpp\v4.0\Microsoft.CppBuild.targets(992,5): warning MSB8012: TargetName(Image) does not match the Linker's OutputFile property value (Assignment1). This may cause your project to build incorrectly. To correct this, please make sure that $(OutDir), $(TargetName) and $(TargetExt) property values match the value specified in %(Link.OutputFile).
       Link:
         c:\Program Files (x86)\Microsoft Visual Studio 10.0\VC\bin\link.exe /ERRORREPORT:PROMPT /OUT:"Assignment1.exe" /INCREMENTAL /NOLOGO JPEG.lib odbc32.lib odbccp32.lib kernel32.lib user32.lib gdi32.lib winspool.lib comdlg32.lib advapi32.lib shell32.lib ole32.lib oleaut32.lib uuid.lib odbc32.lib odbccp32.lib /MANIFEST /ManifestFile:".\IMAGE_OUT\Image.exe.intermediate.manifest" /MANIFESTUAC:"level='asInvoker' uiAccess='false'" /DEBUG /PDB:".\IMAGE_OUT/Assignment1.pdb" /SUBSYSTEM:CONSOLE /TLBID:1 /DYNAMICBASE /NXCOMPAT /IMPLIB:".\IMAGE_OUT\Image.lib" /MACHINE:X86 .\IMAGE_OUT\Image.exe.embed.manifest.res
         .\IMAGE_OUT/bmp.obj
         .\IMAGE_OUT/cmdLineParser.obj
         .\IMAGE_OUT/image.obj
         .\IMAGE_OUT/image.todo.obj
         .\IMAGE_OUT/jpeg.obj
         .\IMAGE_OUT/lineSegments.obj
         .\IMAGE_OUT/lineSegments.todo.obj
         .\IMAGE_OUT/main.obj
         "C:\Users\RCheng\Dropbox\JHU2013Fall\ComputerGraphics\Assignment 1\JPEG.lib"
       Manifest:
         C:\Program Files (x86)\Microsoft SDKs\Windows\v7.0A\bin\mt.exe /nologo /verbose /out:".\IMAGE_OUT\Image.exe.embed.manifest" /manifest .\IMAGE_OUT\Image.exe.intermediate.manifest
         All outputs are up-to-date.
       LinkEmbedManifest:
         All outputs are up-to-date.
         Image.vcxproj -> C:\Users\RCheng\Dropbox\JHU2013Fall\ComputerGraphics\Assignment 1\.\IMAGE_OUT\Image.exe
       FinalizeBuildStatus:
         Deleting file ".\IMAGE_OUT\Image.unsuccessfulbuild".
         Touching ".\IMAGE_OUT\Image.lastbuildstate".
     1>Done Building Project "C:\Users\RCheng\Dropbox\JHU2013Fall\ComputerGraphics\Assignment 1\Image.vcxproj" (build target(s)).

Build succeeded.

Time Elapsed 00:00:00.97
