44

290 25 108 61  301 28 105 50
113 71 209 81  107 58 186 100
275 61 225 67  280 62 211 72
218 77 200 113  204 80 192 110
196 120 187 170  185 118 171 161
199 172 238 164  180 156 222 142
248 160 273 172  230 144 266 154
298 26 447 103  311 30 446 128
284 175 321 169  279 155 315 151
331 169 358 177  322 154 355 174
281 265 299 259  273 274 290 270
240 276 314 277  230 288 301 291
255 286 299 287  245 296 288 298
257 298 241 283  246 306 227 293
263 301 293 301  252 308 285 308
297 298 313 283  287 308 306 296
434 105 353 94  438 132 366 135
288 63 337 83  296 66 340 95
339 90 355 132  334 104 355 134
357 139 361 170  356 145 365 180
385 106 393 330  405 143 385 319
192 190 201 242  174 170 173 244
187 184 174 185  166 220 153 220
171 191 180 237  150 228 161 280
183 242 194 250  166 281 178 282
199 249 205 277  175 253 192 317
208 284 250 330  200 323 234 344
260 331 292 333  246 349 289 350
357 189 352 238  361 186 354 240
362 187 370 187  365 211 375 216
376 191 366 238  377 223 368 273
366 244 358 251  366 280 355 283
352 247 347 276  354 249 345 312
346 284 304 325  338 321 301 344
219 199 238 192  196 205 218 193
245 193 262 201  227 192 254 197
229 213 259 217  214 220 247 222
296 202 315 195  284 198 309 192
322 194 339 202  317 194 338 206
301 218 330 213  292 222 328 221
279 202 278 259  270 196 269 271
253 254 235 272  236 264 218 284
305 251 324 270  299 266 320 286
257 260 274 264  242 269 262 275
186 368 306 402  71 454 257 421
317 404 431 439  270 423 340 390
143 394 289 440  43 501 273 459
304 441 443 482  287 456 414 423